{
	"status": "success",
	"code": "data_read_ok",
	"message": null,
	"data": {
		"results_limited_count": 60,
		"results_total_count": 120,
		"results_array": [
			{
				"id": 2815915,
				"title": "Varmt vinterst\u00e4ll fr\u00e5n Bl\u00e5 kl\u00e4der",
				"is_sold": 0,
				"sold_with_klarna": "0",
				"price": "200.00",
				"description": "Varmt och slitstarkt vintetst\u00e4lll fr\u00e5n Bl\u00e5 kl\u00e4der i stl. 116 ( stor i stl.)\nN\u00e5gra sm\u00e5 n\u00f6tm\u00e4rken p\u00e5 insida kn\u00e4 och arm d\u00e4rav priset samt lite smutsig p\u00e5 de gula detaljerna som ej g\u00e5r att tv\u00e4tta bort. (",
				"comments_nb": 0,
				"klarna_enabled": 0,
				"shipping_method": [],
				"is_lyxloppis": 0,
				"on_his_blacklist": 0,
				"on_my_blacklist": 0,
				"in_favorites": 0,
				"link": "http:\/\/citiboard.se\/umea\/varmt-vinterstall-fran-bla-klader,2815915",
				"comments": [],
				"picture": {
					"square": "http:\/\/cbsethumb.blob.core.windows.net\/350x300c\/25\/d6\/07\/varmt-vinterstall-fran-bla-klader-5814287.jpg",
					"big": "http:\/\/cbsethumb.blob.core.windows.net\/350x300c\/25\/d6\/07\/varmt-vinterstall-fran-bla-klader-5814287.jpg",
					"full": "http:\/\/cbsethumb.blob.core.windows.net\/534x389\/25\/d6\/07\/varmt-vinterstall-fran-bla-klader-5814287.jpg"
				},
				"pictures_count": 1,
				"tel_num": "",
				"owner_name": "Erika",
				"owner_id": 1027477092,
				"owner_avatar": "http:\/\/cbseavatarthumb.blob.core.windows.net\/default\/c2\/2c\/ef\/user-1027477092.jpg",
				"facebook_id": 0,
				"location_info": "V\u00e4sterbotten, Ume\u00e5",
				"location_id": "245",
				"category_id": "42",
				"creation_date": "2016-01-29 14:30:28",
				"last_activity_date": "2016-01-29 14:30:28",
				"is_subscribed_by_connected_user": false
			},
			{
				"id": 2815913,
				"title": "papperskorg ",
				"is_sold": 0,
				"sold_with_klarna": "0",
				"price": "20.00",
				"description": "Finns i Oxel\u00f6sund ",
				"comments_nb": 0,
				"klarna_enabled": 0,
				"shipping_method": [],
				"is_lyxloppis": 0,
				"on_his_blacklist": 0,
				"on_my_blacklist": 0,
				"in_favorites": 0,
				"link": "http:\/\/citiboard.se\/nykoping-oxelosund\/papperskorg,2815913",
				"comments": [],
				"picture": {
					"square": "http:\/\/cbsethumb.blob.core.windows.net\/350x300c\/56\/c9\/29\/papperskorg-5814285.jpg",
					"big": "http:\/\/cbsethumb.blob.core.windows.net\/350x300c\/56\/c9\/29\/papperskorg-5814285.jpg",
					"full": "http:\/\/cbsethumb.blob.core.windows.net\/534x389\/56\/c9\/29\/papperskorg-5814285.jpg"
				},
				"pictures_count": 1,
				"tel_num": "",
				"owner_name": "P\u00e4ivi",
				"owner_id": 624870165,
				"owner_avatar": "http:\/\/cbseavatarthumb.blob.core.windows.net\/default\/0c\/ce\/e9\/user-624870165.jpg",
				"facebook_id": 0,
				"location_info": "S\u00f6dermanland, Nyk\u00f6ping \/ Oxel\u00f6sund",
				"location_id": "179",
				"category_id": "75",
				"creation_date": "2016-01-29 14:29:15",
				"last_activity_date": "2016-01-29 14:29:15",
				"is_subscribed_by_connected_user": false
			},
			{
				"id": 2815911,
				"title": "h\u00f6gan\u00e4s kruka",
				"is_sold": 0,
				"sold_with_klarna": "0",
				"price": "200.00",
				"description": "12Liter finns i Oxel\u00f6sund ",
				"comments_nb": 0,
				"klarna_enabled": 0,
				"shipping_method": [],
				"is_lyxloppis": 0,
				"on_his_blacklist": 0,
				"on_my_blacklist": 0,
				"in_favorites": 0,
				"link": "http:\/\/citiboard.se\/nykoping-oxelosund\/hoganas-kruka,2815911",
				"comments": [],
				"picture": {
					"square": "http:\/\/cbsethumb.blob.core.windows.net\/350x300c\/1f\/aa\/c6\/hoganas-kruka-5814283.jpg",
					"big": "http:\/\/cbsethumb.blob.core.windows.net\/350x300c\/1f\/aa\/c6\/hoganas-kruka-5814283.jpg",
					"full": "http:\/\/cbsethumb.blob.core.windows.net\/534x389\/1f\/aa\/c6\/hoganas-kruka-5814283.jpg"
				},
				"pictures_count": 1,
				"tel_num": "",
				"owner_name": "P\u00e4ivi",
				"owner_id": 624870165,
				"owner_avatar": "http:\/\/cbseavatarthumb.blob.core.windows.net\/default\/0c\/ce\/e9\/user-624870165.jpg",
				"facebook_id": 0,
				"location_info": "S\u00f6dermanland, Nyk\u00f6ping \/ Oxel\u00f6sund",
				"location_id": "179",
				"category_id": "272",
				"creation_date": "2016-01-29 14:27:22",
				"last_activity_date": "2016-01-29 14:27:22",
				"is_subscribed_by_connected_user": false
			},
			{
				"id": 2719751,
				"title": "Ny kl\u00e4nning fr\u00e5n Nelly",
				"is_sold": 0,
				"sold_with_klarna": "0",
				"price": "199.00",
				"description": "Ny kl\u00e4nning k\u00f6pt fr\u00e5n Nelly i storlek S till M, lite os\u00e4ket ",
				"comments_nb": 6,
				"klarna_enabled": 0,
				"shipping_method": [],
				"is_lyxloppis": 0,
				"on_his_blacklist": 0,
				"on_my_blacklist": 0,
				"in_favorites": 0,
				"link": "http:\/\/citiboard.se\/umea\/ny-klanning-fran-nelly,2719751",
				"comments": [
					{
						"id": "4390117",
						"body": "Aaa",
						"author_name": "Rusol",
						"author_id": "100002029472734",
						"author_avatar": "http:\/\/cbseavatarthumb.blob.core.windows.net\/default\/fc\/04\/e3\/user-100002029472734.jpg",
						"creation_date": "2016-01-29 14:30:39"
					},
					{
						"id": "4390115",
						"body": "F\u00e5r man komma och kolla?",
						"author_name": "Lisa",
						"author_id": "100003011714264",
						"author_avatar": "http:\/\/cbseavatarthumb.blob.core.windows.net\/default\/bf\/53\/8c\/user-100003011714264.jpg",
						"creation_date": "2016-01-29 14:26:29"
					},
					{
						"id": "4389161",
						"body": "M..",
						"author_name": "Rusol",
						"author_id": "100002029472734",
						"author_avatar": "http:\/\/cbseavatarthumb.blob.core.windows.net\/default\/fc\/04\/e3\/user-100002029472734.jpg",
						"creation_date": "2016-01-28 22:56:19"
					}
				],
				"picture": {
					"square": "http:\/\/cbsethumb.blob.core.windows.net\/350x300c\/c7\/f2\/42\/ny-klanning-fran-nelly-5582343.jpg",
					"big": "http:\/\/cbsethumb.blob.core.windows.net\/350x300c\/c7\/f2\/42\/ny-klanning-fran-nelly-5582343.jpg",
					"full": "http:\/\/cbsethumb.blob.core.windows.net\/534x389\/c7\/f2\/42\/ny-klanning-fran-nelly-5582343.jpg"
				},
				"pictures_count": 1,
				"tel_num": "",
				"owner_name": "Rusol",
				"owner_id": 100002029472734,
				"owner_avatar": "http:\/\/cbseavatarthumb.blob.core.windows.net\/default\/fc\/04\/e3\/user-100002029472734.jpg",
				"facebook_id": 0,
				"location_info": "V\u00e4sterbotten, Ume\u00e5",
				"location_id": "245",
				"category_id": "332",
				"creation_date": "2015-11-17 20:35:38",
				"last_activity_date": "2016-01-29 14:26:30",
				"is_subscribed_by_connected_user": false
			},
			{
				"id": 2815909,
				"title": "Kassettinspelare till dator",
				"is_sold": 0,
				"sold_with_klarna": "0",
				"price": "200.00",
				"description": "ION  Kassett omvandlare till PC eller MAC.\r\nSpela \u00f6ver dina kassetter till dator.\r\n\r\nEj anv\u00e4nd av mig(t\u00e4nkte ge bort den i present men personen hade gjort sig av med kassetterna) o inte heller av f\u00f6re",
				"comments_nb": 0,
				"klarna_enabled": 0,
				"shipping_method": [],
				"is_lyxloppis": 0,
				"on_his_blacklist": 0,
				"on_my_blacklist": 0,
				"in_favorites": 0,
				"link": "http:\/\/citiboard.se\/angelholm\/kassettinspelare-till-dator,2815909",
				"comments": [],
				"picture": {
					"square": "http:\/\/cbsethumb.blob.core.windows.net\/350x300c\/9a\/61\/1c\/kassettinspelare-till-dator-5814277.jpg",
					"big": "http:\/\/cbsethumb.blob.core.windows.net\/350x300c\/9a\/61\/1c\/kassettinspelare-till-dator-5814277.jpg",
					"full": "http:\/\/cbsethumb.blob.core.windows.net\/534x389\/9a\/61\/1c\/kassettinspelare-till-dator-5814277.jpg"
				},
				"pictures_count": 1,
				"tel_num": "",
				"owner_name": "Panter",
				"owner_id": 10206227985245725,
				"owner_avatar": "http:\/\/cbseavatarthumb.blob.core.windows.net\/default\/09\/40\/87\/user-10206227985245725.jpg",
				"facebook_id": 0,
				"location_info": "Sk\u00e5ne, \u00c4ngelholm",
				"location_id": "142",
				"category_id": "165",
				"creation_date": "2016-01-29 14:25:57",
				"last_activity_date": "2016-01-29 14:25:57",
				"is_subscribed_by_connected_user": false
			},
			{
				"id": 2815907,
				"title": "Barnvagnar ",
				"is_sold": 0,
				"sold_with_klarna": "0",
				"price": "2000.00",
				"description": "S\u00e4ljar min barn vagn 3 i 1",
				"comments_nb": 0,
				"klarna_enabled": 0,
				"shipping_method": [],
				"is_lyxloppis": 0,
				"on_his_blacklist": 0,
				"on_my_blacklist": 0,
				"in_favorites": 0,
				"link": "http:\/\/citiboard.se\/sodertalje\/barnvagnar,2815907",
				"comments": [],
				"picture": {
					"square": "http:\/\/cbsethumb.blob.core.windows.net\/350x300c\/dd\/f8\/9b\/barnvagnar-5814275.jpg",
					"big": "http:\/\/cbsethumb.blob.core.windows.net\/350x300c\/dd\/f8\/9b\/barnvagnar-5814275.jpg",
					"full": "http:\/\/cbsethumb.blob.core.windows.net\/534x389\/dd\/f8\/9b\/barnvagnar-5814275.jpg"
				},
				"pictures_count": 1,
				"tel_num": "",
				"owner_name": "Makale",
				"owner_id": 10206227985306633,
				"owner_avatar": "http:\/\/cbseavatarthumb.blob.core.windows.net\/default\/0d\/1b\/ab\/user-10206227985306633.jpg",
				"facebook_id": 0,
				"location_info": "Stockholm, S\u00f6dert\u00e4lje",
				"location_id": "198",
				"category_id": "45",
				"creation_date": "2016-01-29 14:25:44",
				"last_activity_date": "2016-01-29 14:25:44",
				"is_subscribed_by_connected_user": false
			},
			{
				"id": 2815905,
				"title": "krukh\u00e4ngare",
				"is_sold": 0,
				"sold_with_klarna": "0",
				"price": "20.00",
				"description": "Finns i Oxel\u00f6sund ",
				"comments_nb": 0,
				"klarna_enabled": 0,
				"shipping_method": [],
				"is_lyxloppis": 0,
				"on_his_blacklist": 0,
				"on_my_blacklist": 0,
				"in_favorites": 0,
				"link": "http:\/\/citiboard.se\/nykoping-oxelosund\/krukhangare,2815905",
				"comments": [],
				"picture": {
					"square": "http:\/\/cbsethumb.blob.core.windows.net\/350x300c\/81\/43\/c5\/krukhangare-5814273.jpg",
					"big": "http:\/\/cbsethumb.blob.core.windows.net\/350x300c\/81\/43\/c5\/krukhangare-5814273.jpg",
					"full": "http:\/\/cbsethumb.blob.core.windows.net\/534x389\/81\/43\/c5\/krukhangare-5814273.jpg"
				},
				"pictures_count": 1,
				"tel_num": "",
				"owner_name": "P\u00e4ivi",
				"owner_id": 624870165,
				"owner_avatar": "http:\/\/cbseavatarthumb.blob.core.windows.net\/default\/0c\/ce\/e9\/user-624870165.jpg",
				"facebook_id": 0,
				"location_info": "S\u00f6dermanland, Nyk\u00f6ping \/ Oxel\u00f6sund",
				"location_id": "179",
				"category_id": "272",
				"creation_date": "2016-01-29 14:25:37",
				"last_activity_date": "2016-01-29 14:25:37",
				"is_subscribed_by_connected_user": false
			},
			{
				"id": 2815903,
				"title": "Beauty slim body shaper",
				"is_sold": 0,
				"sold_with_klarna": "0",
				"price": "150.00",
				"description": "G\u00f6r magen smal och ger perfekt figur. Endast testad. Beige f\u00e4rg. St\u00e5r XL men liten i storlek mer \u00e4n som S-M ",
				"comments_nb": 0,
				"klarna_enabled": 0,
				"shipping_method": [],
				"is_lyxloppis": 0,
				"on_his_blacklist": 0,
				"on_my_blacklist": 0,
				"in_favorites": 0,
				"link": "http:\/\/citiboard.se\/uppsala\/beauty-slim-body-shaper,2815903",
				"comments": [],
				"picture": {
					"square": "http:\/\/cbsethumb.blob.core.windows.net\/350x300c\/fe\/ca\/15\/beauty-slim-body-shaper-5814269.jpg",
					"big": "http:\/\/cbsethumb.blob.core.windows.net\/350x300c\/fe\/ca\/15\/beauty-slim-body-shaper-5814269.jpg",
					"full": "http:\/\/cbsethumb.blob.core.windows.net\/534x389\/fe\/ca\/15\/beauty-slim-body-shaper-5814269.jpg"
				},
				"pictures_count": 1,
				"tel_num": "",
				"owner_name": "Sofia",
				"owner_id": 100006702617071,
				"owner_avatar": "http:\/\/cbseavatarthumb.blob.core.windows.net\/default\/f6\/2b\/00\/user-100006702617071.jpg",
				"facebook_id": 0,
				"location_info": "Uppsala, Uppsala",
				"location_id": "217",
				"category_id": "331",
				"creation_date": "2016-01-29 14:24:43",
				"last_activity_date": "2016-01-29 14:24:43",
				"is_subscribed_by_connected_user": false
			},
			{
				"id": 2815901,
				"title": "l\u00f6vkorg",
				"is_sold": 0,
				"sold_with_klarna": "0",
				"price": "50.00",
				"description": "Finns i Oxel\u00f6sund ",
				"comments_nb": 0,
				"klarna_enabled": 0,
				"shipping_method": [],
				"is_lyxloppis": 0,
				"on_his_blacklist": 0,
				"on_my_blacklist": 0,
				"in_favorites": 0,
				"link": "http:\/\/citiboard.se\/nykoping-oxelosund\/lovkorg,2815901",
				"comments": [],
				"picture": {
					"square": "http:\/\/cbsethumb.blob.core.windows.net\/350x300c\/f3\/c8\/83\/lovkorg-5814267.jpg",
					"big": "http:\/\/cbsethumb.blob.core.windows.net\/350x300c\/f3\/c8\/83\/lovkorg-5814267.jpg",
					"full": "http:\/\/cbsethumb.blob.core.windows.net\/534x389\/f3\/c8\/83\/lovkorg-5814267.jpg"
				},
				"pictures_count": 1,
				"tel_num": "",
				"owner_name": "P\u00e4ivi",
				"owner_id": 624870165,
				"owner_avatar": "http:\/\/cbseavatarthumb.blob.core.windows.net\/default\/0c\/ce\/e9\/user-624870165.jpg",
				"facebook_id": 0,
				"location_info": "S\u00f6dermanland, Nyk\u00f6ping \/ Oxel\u00f6sund",
				"location_id": "179",
				"category_id": "272",
				"creation_date": "2016-01-29 14:24:16",
				"last_activity_date": "2016-01-29 14:24:16",
				"is_subscribed_by_connected_user": false
			},
			{
				"id": 2353651,
				"title": "Volvo 740\/16v\/d24\/140 delar",
				"is_sold": 0,
				"sold_with_klarna": "0",
				"price": "100.00",
				"description": "\r\n\r\nVolvo delar (16v)\r\nHar en b234f 88- motor st\u00e5ende \r\nN\u00e5got is\u00e4rplockad \r\nMan f\u00e5r med detta till motorn: \r\nGrenr\u00f6r,insug,original 80A generator,servopump,flera original luftfilter,2 remk\u00e5per,v\u00e4xell\u00e5",
				"comments_nb": 4,
				"klarna_enabled": 0,
				"shipping_method": [],
				"is_lyxloppis": 0,
				"on_his_blacklist": 0,
				"on_my_blacklist": 0,
				"in_favorites": 0,
				"link": "http:\/\/citiboard.se\/skara\/volvo-740-16v-d24-140-delar,2353651",
				"comments": [
					{
						"id": "4390111",
						"body": "Har en 16 v motor till nu dock utan topp",
						"author_name": "Oskar",
						"author_id": "10206227985315533",
						"author_avatar": "http:\/\/cbseavatarthumb.blob.core.windows.net\/default\/42\/b4\/f1\/user-10206227985315533.jpg",
						"creation_date": "2016-01-29 14:23:02"
					},
					{
						"id": "4390109",
						"body": "Nej",
						"author_name": "Oskar",
						"author_id": "10206227985315533",
						"author_avatar": "http:\/\/cbseavatarthumb.blob.core.windows.net\/default\/42\/b4\/f1\/user-10206227985315533.jpg",
						"creation_date": "2016-01-29 14:21:53"
					},
					{
						"id": "4389085",
						"body": "Finns ventilk\u00e5pa kvar",
						"author_name": "Anders",
						"author_id": "581525052",
						"author_avatar": "http:\/\/cbseavatarthumb.blob.core.windows.net\/default\/54\/d6\/c0\/user-581525052.jpg",
						"creation_date": "2016-01-28 22:25:42"
					}
				],
				"picture": {
					"square": "http:\/\/cbsethumb.blob.core.windows.net\/350x300c\/68\/20\/88\/volvo-740-16v-d24-140-delar-4736855.jpg",
					"big": "http:\/\/cbsethumb.blob.core.windows.net\/350x300c\/68\/20\/88\/volvo-740-16v-d24-140-delar-4736855.jpg",
					"full": "http:\/\/cbsethumb.blob.core.windows.net\/534x389\/68\/20\/88\/volvo-740-16v-d24-140-delar-4736855.jpg"
				},
				"pictures_count": 1,
				"tel_num": "0737006426",
				"owner_name": "Volvoknugge",
				"owner_id": 10206227985218665,
				"owner_avatar": "http:\/\/cbseavatarthumb.blob.core.windows.net\/default\/78\/e2\/61\/user-10206227985218665.jpg",
				"facebook_id": 0,
				"location_info": "V\u00e4stra G\u00f6taland, Skara",
				"location_id": "297",
				"category_id": "229",
				"creation_date": "2015-04-20 20:48:04",
				"last_activity_date": "2016-01-29 14:23:03",
				"is_subscribed_by_connected_user": false
			},
			{
				"id": 2815899,
				"title": "krukh\u00e5llare",
				"is_sold": 0,
				"sold_with_klarna": "0",
				"price": "20.00",
				"description": "Finns i Oxel\u00f6sund ",
				"comments_nb": 0,
				"klarna_enabled": 0,
				"shipping_method": [],
				"is_lyxloppis": 0,
				"on_his_blacklist": 0,
				"on_my_blacklist": 0,
				"in_favorites": 0,
				"link": "http:\/\/citiboard.se\/nykoping-oxelosund\/krukhallare,2815899",
				"comments": [],
				"picture": {
					"square": "http:\/\/cbsethumb.blob.core.windows.net\/350x300c\/bd\/b9\/58\/krukhallare-5814265.jpg",
					"big": "http:\/\/cbsethumb.blob.core.windows.net\/350x300c\/bd\/b9\/58\/krukhallare-5814265.jpg",
					"full": "http:\/\/cbsethumb.blob.core.windows.net\/534x389\/bd\/b9\/58\/krukhallare-5814265.jpg"
				},
				"pictures_count": 1,
				"tel_num": "",
				"owner_name": "P\u00e4ivi",
				"owner_id": 624870165,
				"owner_avatar": "http:\/\/cbseavatarthumb.blob.core.windows.net\/default\/0c\/ce\/e9\/user-624870165.jpg",
				"facebook_id": 0,
				"location_info": "S\u00f6dermanland, Nyk\u00f6ping \/ Oxel\u00f6sund",
				"location_id": "179",
				"category_id": "272",
				"creation_date": "2016-01-29 14:22:55",
				"last_activity_date": "2016-01-29 14:22:55",
				"is_subscribed_by_connected_user": false
			},
			{
				"id": 2801953,
				"title": "Converse \"soffa\"",
				"is_sold": 0,
				"sold_with_klarna": "0",
				"price": "250.00",
				"description": "Den \u00e4r svart vit med gr\u00e5a r\u00e4nder p\u00e5 sidan.Den har 2 sm\u00e5 \"h\u00e5l\" p\u00e5 undersidan men vi har tejpat \u00f6ver  \"h\u00e5len\" med silvertejp s\u00e5 den funkar lika bra.Den \u00e4r anv\u00e4nd i cirka 1,5 \u00e5r.Den har inga slitningar p",
				"comments_nb": 0,
				"klarna_enabled": 0,
				"shipping_method": [],
				"is_lyxloppis": 0,
				"on_his_blacklist": 0,
				"on_my_blacklist": 0,
				"in_favorites": 0,
				"link": "http:\/\/citiboard.se\/halmstad\/converse-soffa,2801953",
				"comments": [],
				"picture": {
					"square": "http:\/\/cbsethumb.blob.core.windows.net\/350x300c\/95\/7a\/c2\/converse-soffa-5781581.jpg",
					"big": "http:\/\/cbsethumb.blob.core.windows.net\/350x300c\/95\/7a\/c2\/converse-soffa-5781581.jpg",
					"full": "http:\/\/cbsethumb.blob.core.windows.net\/534x389\/95\/7a\/c2\/converse-soffa-5781581.jpg"
				},
				"pictures_count": 1,
				"tel_num": "0763112899",
				"owner_name": "Elise",
				"owner_id": 10206227985297509,
				"owner_avatar": "http:\/\/cbseavatarthumb.blob.core.windows.net\/default\/f3\/47\/3b\/user-10206227985297509.jpg",
				"facebook_id": 0,
				"location_info": "Halland, Halmstad",
				"location_id": "56",
				"category_id": "78",
				"creation_date": "2016-01-20 16:50:12",
				"last_activity_date": "2016-01-29 14:22:40",
				"is_subscribed_by_connected_user": false
			},
			{
				"id": 2815897,
				"title": "migsvets",
				"is_sold": 0,
				"sold_with_klarna": "0",
				"price": "2800.00",
				"description": "migsvets s\u00e4ljes knappt anv\u00e4nd ring 0705739225",
				"comments_nb": 0,
				"klarna_enabled": 0,
				"shipping_method": [],
				"is_lyxloppis": 0,
				"on_his_blacklist": 0,
				"on_my_blacklist": 0,
				"in_favorites": 0,
				"link": "http:\/\/citiboard.se\/varberg\/migsvets,2815897",
				"comments": [],
				"picture": {
					"square": "http:\/\/cbsethumb.blob.core.windows.net\/350x300c\/c7\/56\/86\/migsvets-5814263.jpg",
					"big": "http:\/\/cbsethumb.blob.core.windows.net\/350x300c\/c7\/56\/86\/migsvets-5814263.jpg",
					"full": "http:\/\/cbsethumb.blob.core.windows.net\/534x389\/c7\/56\/86\/migsvets-5814263.jpg"
				},
				"pictures_count": 1,
				"tel_num": "0705739225",
				"owner_name": "ingvar0606",
				"owner_id": 10206227985193957,
				"owner_avatar": "http:\/\/cbseavatarthumb.blob.core.windows.net\/default\/5e\/c8\/6e\/user-10206227985193957.jpg",
				"facebook_id": 0,
				"location_info": "Halland, Varberg",
				"location_id": "61",
				"category_id": "70",
				"creation_date": "2016-01-29 14:22:33",
				"last_activity_date": "2016-01-29 14:22:33",
				"is_subscribed_by_connected_user": false
			},
			{
				"id": 2815895,
				"title": "BALKL\u00c4NNING S\u00d6KES",
				"is_sold": 0,
				"sold_with_klarna": "0",
				"price": "1000.00",
				"description": "Hej! S\u00f6ker balkl\u00e4nningar. \u00c4r \u00f6ppen f\u00f6r f\u00f6rs\u00f6ag men den m\u00e5ste vara ca 93 cm i bysten och inte \u00e5tsittande utan a-linje eller prinsess. H\u00f6r g\u00e4rna av dig vad du har att s\u00e4lja!",
				"comments_nb": 0,
				"klarna_enabled": 0,
				"shipping_method": [],
				"is_lyxloppis": 0,
				"on_his_blacklist": 0,
				"on_my_blacklist": 0,
				"in_favorites": 0,
				"link": "http:\/\/citiboard.se\/oskarshamn\/balklanning-sokes,2815895",
				"comments": [],
				"picture": "",
				"pictures_count": 0,
				"tel_num": "",
				"owner_name": "Sigrid_skoldblom",
				"owner_id": 10206227985287373,
				"owner_avatar": "http:\/\/cbseavatarthumb.blob.core.windows.net\/default\/fa\/4e\/30\/user-10206227985287373.jpg",
				"facebook_id": 0,
				"location_info": "Kalmar, Oskarshamn",
				"location_id": "91",
				"category_id": "332",
				"creation_date": "2016-01-29 14:22:27",
				"last_activity_date": "2016-01-29 14:22:27",
				"is_subscribed_by_connected_user": false
			},
			{
				"id": 2815893,
				"title": "Kulram",
				"is_sold": 0,
				"sold_with_klarna": "0",
				"price": "30.00",
				"description": "Kulram fr\u00e5n Ikea i mycket fint skick",
				"comments_nb": 0,
				"klarna_enabled": 0,
				"shipping_method": [],
				"is_lyxloppis": 0,
				"on_his_blacklist": 0,
				"on_my_blacklist": 0,
				"in_favorites": 0,
				"link": "http:\/\/citiboard.se\/umea\/kulram,2815893",
				"comments": [],
				"picture": {
					"square": "http:\/\/cbsethumb.blob.core.windows.net\/350x300c\/19\/06\/13\/kulram-5814261.jpg",
					"big": "http:\/\/cbsethumb.blob.core.windows.net\/350x300c\/19\/06\/13\/kulram-5814261.jpg",
					"full": "http:\/\/cbsethumb.blob.core.windows.net\/534x389\/19\/06\/13\/kulram-5814261.jpg"
				},
				"pictures_count": 1,
				"tel_num": "",
				"owner_name": "Erika",
				"owner_id": 1027477092,
				"owner_avatar": "http:\/\/cbseavatarthumb.blob.core.windows.net\/default\/c2\/2c\/ef\/user-1027477092.jpg",
				"facebook_id": 0,
				"location_info": "V\u00e4sterbotten, Ume\u00e5",
				"location_id": "245",
				"category_id": "47",
				"creation_date": "2016-01-29 14:21:43",
				"last_activity_date": "2016-01-29 14:21:43",
				"is_subscribed_by_connected_user": false
			},
			{
				"id": 2673057,
				"title": "Traxxas ERevo VXL ",
				"is_sold": 0,
				"sold_with_klarna": "0",
				"price": "3000.00",
				"description": "1\/16 size Traxxas ERevo VXL Brushless\r\n2x 1200 mAh batteries\r\n2x 1500 mAh batteries\r\nPinion gear for 80+ kmh installed \r\nSeries Battery Connector Cable (Longer Running Time)\r\nY Battery Connector Cable",
				"comments_nb": 1,
				"klarna_enabled": 1,
				"shipping_method": [
					{
						"name": "shipping1",
						"label": "Avh\u00e4mtning",
						"price": "0"
					}
				],
				"is_lyxloppis": 0,
				"on_his_blacklist": 0,
				"on_my_blacklist": 0,
				"in_favorites": 0,
				"link": "http:\/\/citiboard.se\/falun-borlange\/traxxas-erevo-vxl,2673057",
				"comments": [
					{
						"id": "4390107",
						"body": "Hi due to the length of the ad and lack of intresst im interessted giving you an decent offer of 1300sek f\u00f6r car and all , cash in hand and a good home for a rc car nerd that will give the car a good home along with other cars.",
						"author_name": "Stefan",
						"author_id": "779869252025330",
						"author_avatar": "http:\/\/cbseavatarthumb.blob.core.windows.net\/default\/01\/2c\/fe\/user-779869252025330.jpg",
						"creation_date": "2016-01-29 14:21:13"
					}
				],
				"picture": {
					"square": "http:\/\/cbsethumb.blob.core.windows.net\/350x300c\/1c\/37\/2c\/traxxas-erevo-vxl-5621011.jpg",
					"big": "http:\/\/cbsethumb.blob.core.windows.net\/350x300c\/1c\/37\/2c\/traxxas-erevo-vxl-5621011.jpg",
					"full": "http:\/\/cbsethumb.blob.core.windows.net\/534x389\/1c\/37\/2c\/traxxas-erevo-vxl-5621011.jpg"
				},
				"pictures_count": 1,
				"tel_num": "0706985165",
				"owner_name": "Stavros",
				"owner_id": 1382058192,
				"owner_avatar": "http:\/\/cbseavatarthumb.blob.core.windows.net\/default\/b6\/d7\/c9\/user-1382058192.jpg",
				"facebook_id": 0,
				"location_info": "Dalarna, Falun \/ Borl\u00e4nge",
				"location_id": "317",
				"category_id": "64",
				"creation_date": "2015-10-19 16:20:31",
				"last_activity_date": "2016-01-29 14:21:16",
				"is_subscribed_by_connected_user": false
			},
			{
				"id": 2815891,
				"title": "Cars pussel",
				"is_sold": 0,
				"sold_with_klarna": "0",
				"price": "20.00",
				"description": "Tv\u00e5 stycken Cars tr\u00e4pussel. Ett med kartong och ett utan.\nDet utan kartong s\u00e4ljes f\u00f6r 15:-.",
				"comments_nb": 0,
				"klarna_enabled": 0,
				"shipping_method": [],
				"is_lyxloppis": 0,
				"on_his_blacklist": 0,
				"on_my_blacklist": 0,
				"in_favorites": 0,
				"link": "http:\/\/citiboard.se\/umea\/cars-pussel,2815891",
				"comments": [],
				"picture": {
					"square": "http:\/\/cbsethumb.blob.core.windows.net\/350x300c\/d5\/d8\/9d\/cars-pussel-5814259.jpg",
					"big": "http:\/\/cbsethumb.blob.core.windows.net\/350x300c\/d5\/d8\/9d\/cars-pussel-5814259.jpg",
					"full": "http:\/\/cbsethumb.blob.core.windows.net\/534x389\/d5\/d8\/9d\/cars-pussel-5814259.jpg"
				},
				"pictures_count": 1,
				"tel_num": "",
				"owner_name": "Erika",
				"owner_id": 1027477092,
				"owner_avatar": "http:\/\/cbseavatarthumb.blob.core.windows.net\/default\/c2\/2c\/ef\/user-1027477092.jpg",
				"facebook_id": 0,
				"location_info": "V\u00e4sterbotten, Ume\u00e5",
				"location_id": "245",
				"category_id": "47",
				"creation_date": "2016-01-29 14:19:51",
				"last_activity_date": "2016-01-29 14:19:51",
				"is_subscribed_by_connected_user": false
			},
			{
				"id": 2815889,
				"title": "plasthinkar",
				"is_sold": 0,
				"sold_with_klarna": "0",
				"price": "20.00",
				"description": "Finns i Oxel\u00f6sund",
				"comments_nb": 0,
				"klarna_enabled": 0,
				"shipping_method": [],
				"is_lyxloppis": 0,
				"on_his_blacklist": 0,
				"on_my_blacklist": 0,
				"in_favorites": 0,
				"link": "http:\/\/citiboard.se\/nykoping-oxelosund\/plasthinkar,2815889",
				"comments": [],
				"picture": {
					"square": "http:\/\/cbsethumb.blob.core.windows.net\/350x300c\/d9\/c8\/2e\/plasthinkar-5814255.jpg",
					"big": "http:\/\/cbsethumb.blob.core.windows.net\/350x300c\/d9\/c8\/2e\/plasthinkar-5814255.jpg",
					"full": "http:\/\/cbsethumb.blob.core.windows.net\/534x389\/d9\/c8\/2e\/plasthinkar-5814255.jpg"
				},
				"pictures_count": 1,
				"tel_num": "",
				"owner_name": "P\u00e4ivi",
				"owner_id": 624870165,
				"owner_avatar": "http:\/\/cbseavatarthumb.blob.core.windows.net\/default\/0c\/ce\/e9\/user-624870165.jpg",
				"facebook_id": 0,
				"location_info": "S\u00f6dermanland, Nyk\u00f6ping \/ Oxel\u00f6sund",
				"location_id": "179",
				"category_id": "272",
				"creation_date": "2016-01-29 14:19:21",
				"last_activity_date": "2016-01-29 14:19:21",
				"is_subscribed_by_connected_user": false
			},
			{
				"id": 2810637,
				"title": "Rostfri Husqvarna Spis Frist\u00e5ende 70cm",
				"is_sold": 0,
				"sold_with_klarna": "0",
				"price": "1200.00",
				"description": "Husqvarna Frist\u00e5ende Spis 70cm\r\n-----------------\r\n70cm bred frist\u00e5ende spis med keramisk h\u00e4ll och stor ugn med \r\nfunktioner varmluft och grill.\r\n\r\nCa 5 \u00e5r gammal i bra skick, sm\u00e5 slitage p\u00e5 ena platt",
				"comments_nb": 0,
				"klarna_enabled": 0,
				"shipping_method": [],
				"is_lyxloppis": 0,
				"on_his_blacklist": 0,
				"on_my_blacklist": 0,
				"in_favorites": 0,
				"link": "http:\/\/citiboard.se\/malmo\/rostfri-husqvarna-spis-fristaende-70cm,2810637",
				"comments": [],
				"picture": {
					"square": "http:\/\/cbsethumb.blob.core.windows.net\/350x300c\/94\/05\/45\/rostfri-husqvarna-spis-fristaende-70cm-5801707.jpg",
					"big": "http:\/\/cbsethumb.blob.core.windows.net\/350x300c\/94\/05\/45\/rostfri-husqvarna-spis-fristaende-70cm-5801707.jpg",
					"full": "http:\/\/cbsethumb.blob.core.windows.net\/534x389\/94\/05\/45\/rostfri-husqvarna-spis-fristaende-70cm-5801707.jpg"
				},
				"pictures_count": 1,
				"tel_num": "0737022376",
				"owner_name": "Mickael",
				"owner_id": 10206227985301301,
				"owner_avatar": "http:\/\/cbseavatarthumb.blob.core.windows.net\/default\/82\/93\/fd\/user-10206227985301301.jpg",
				"facebook_id": 0,
				"location_info": "Sk\u00e5ne, Malm\u00f6",
				"location_id": "160",
				"category_id": "278",
				"creation_date": "2016-01-25 22:22:12",
				"last_activity_date": "2016-01-29 14:19:17",
				"is_subscribed_by_connected_user": false
			},
			{
				"id": 2815887,
				"title": "Tv\u00e5 stycken minkm\u00f6ssor fr\u00e5n \u00d6sterbotten\/Morbrors Minkfarm.",
				"is_sold": 0,
				"sold_with_klarna": "0",
				"price": "100.00",
				"description": "Tv\u00e5 \u00e4kta fina mink-m\u00f6ssor. \r\n1 Svartgl\u00e4nsande mink-m\u00f6ssa av finaste mink. 200 kronor.\r\n2. Brun, svart vit mink-m\u00f6ssa av finaste mink, 100 kronor. Norrlins V\u00e4ster\u00e5s har sytt  foder i b\u00e5da mink-m\u00f6ssorna",
				"comments_nb": 0,
				"klarna_enabled": 0,
				"shipping_method": [],
				"is_lyxloppis": 0,
				"on_his_blacklist": 0,
				"on_my_blacklist": 0,
				"in_favorites": 0,
				"link": "http:\/\/citiboard.se\/vasteras\/tva-stycken-minkmossor-fran-osterbotten-morbrors-minkfarm,2815887",
				"comments": [],
				"picture": {
					"square": "http:\/\/cbsethumb.blob.core.windows.net\/350x300c\/89\/32\/54\/tva-stycken-minkmossor-fran-osterbotten-morbrors-minkfarm-5814251.jpg",
					"big": "http:\/\/cbsethumb.blob.core.windows.net\/350x300c\/89\/32\/54\/tva-stycken-minkmossor-fran-osterbotten-morbrors-minkfarm-5814251.jpg",
					"full": "http:\/\/cbsethumb.blob.core.windows.net\/534x389\/89\/32\/54\/tva-stycken-minkmossor-fran-osterbotten-morbrors-minkfarm-5814251.jpg"
				},
				"pictures_count": 1,
				"tel_num": "072-333 44 30",
				"owner_name": "Marianne",
				"owner_id": 100000101001194,
				"owner_avatar": "http:\/\/cbseavatarthumb.blob.core.windows.net\/default\/53\/9d\/6d\/user-100000101001194.jpg",
				"facebook_id": 0,
				"location_info": "V\u00e4stmanland, V\u00e4ster\u00e5s",
				"location_id": "265",
				"category_id": "331",
				"creation_date": "2016-01-29 14:18:51",
				"last_activity_date": "2016-01-29 14:18:51",
				"is_subscribed_by_connected_user": false
			},
			{
				"id": 2768635,
				"title": "Armani klocka",
				"is_sold": 0,
				"sold_with_klarna": "0",
				"price": "350.00",
				"description": "Armani klocka till salu, bra kvalit\u00e9 och i bra skick",
				"comments_nb": 11,
				"klarna_enabled": 0,
				"shipping_method": [],
				"is_lyxloppis": 0,
				"on_his_blacklist": 0,
				"on_my_blacklist": 0,
				"in_favorites": 0,
				"link": "http:\/\/citiboard.se\/stockholm\/armani-klocka,2768635",
				"comments": [
					{
						"id": "4390105",
						"body": "S\u00e4ljer en Rolex yachtmaster 2 i guld kopia",
						"author_name": "jeppe-sthlm",
						"author_id": "10206227985245173",
						"author_avatar": "http:\/\/cbseavatarthumb.blob.core.windows.net\/default\/85\/c0\/e6\/user-10206227985245173.jpg",
						"creation_date": "2016-01-29 14:18:06"
					},
					{
						"id": "4389569",
						"body": "Jag k\u00f6per",
						"author_name": "KasperNordlander",
						"author_id": "10206227985249161",
						"author_avatar": "http:\/\/cbseavatarthumb.blob.core.windows.net\/default\/63\/59\/6a\/user-10206227985249161.jpg",
						"creation_date": "2016-01-29 09:01:21"
					},
					{
						"id": "4332203",
						"body": "Nej det \u00e4r den inte, skulle inte ha s\u00e5lt den f\u00f6r 300kr annars",
						"author_name": "Alper",
						"author_id": "10206227985301433",
						"author_avatar": "http:\/\/cbseavatarthumb.blob.core.windows.net\/default\/43\/5f\/71\/user-10206227985301433.jpg",
						"creation_date": "2016-01-03 00:52:00"
					}
				],
				"picture": {
					"square": "http:\/\/cbsethumb.blob.core.windows.net\/350x300c\/29\/c9\/c2\/armani-klocka-5704893.jpg",
					"big": "http:\/\/cbsethumb.blob.core.windows.net\/350x300c\/29\/c9\/c2\/armani-klocka-5704893.jpg",
					"full": "http:\/\/cbsethumb.blob.core.windows.net\/534x389\/29\/c9\/c2\/armani-klocka-5704893.jpg"
				},
				"pictures_count": 1,
				"tel_num": "",
				"owner_name": "Alper",
				"owner_id": 10206227985301433,
				"owner_avatar": "http:\/\/cbseavatarthumb.blob.core.windows.net\/default\/43\/5f\/71\/user-10206227985301433.jpg",
				"facebook_id": 0,
				"location_info": "Stockholm, Stockholm",
				"location_id": "201",
				"category_id": "103",
				"creation_date": "2015-12-28 01:34:20",
				"last_activity_date": "2016-01-29 14:18:08",
				"is_subscribed_by_connected_user": false
			},
			{
				"id": 2815885,
				"title": "Digitalkamera 30 ggr zoom",
				"is_sold": 0,
				"sold_with_klarna": "0",
				"price": "1400.00",
				"description": "Fujifilm Finepix SL300 14 mpixlar. Kartong, v\u00e4ska, laddare, batteri, kablar, skiva, minneskort som ger c:a 1170 bilder i h\u00f6gsta uppl\u00f6sning, 12700 i l\u00e4gsta. Allt Fujifilm original. Plats f\u00f6r extern bli",
				"comments_nb": 0,
				"klarna_enabled": 0,
				"shipping_method": [],
				"is_lyxloppis": 0,
				"on_his_blacklist": 0,
				"on_my_blacklist": 0,
				"in_favorites": 0,
				"link": "http:\/\/citiboard.se\/norrkoping\/digitalkamera-30-ggr-zoom,2815885",
				"comments": [],
				"picture": {
					"square": "http:\/\/cbsethumb.blob.core.windows.net\/350x300c\/95\/a0\/69\/digitalkamera-30-ggr-zoom-5814241.jpg",
					"big": "http:\/\/cbsethumb.blob.core.windows.net\/350x300c\/95\/a0\/69\/digitalkamera-30-ggr-zoom-5814241.jpg",
					"full": "http:\/\/cbsethumb.blob.core.windows.net\/534x389\/95\/a0\/69\/digitalkamera-30-ggr-zoom-5814241.jpg"
				},
				"pictures_count": 1,
				"tel_num": "0708909443",
				"owner_name": "hebbemannen",
				"owner_id": 10206227985176223,
				"owner_avatar": "http:\/\/cbseavatarthumb.blob.core.windows.net\/default\/27\/13\/69\/user-10206227985176223.jpg",
				"facebook_id": 0,
				"location_info": "\u00d6sterg\u00f6tland, Norrk\u00f6ping",
				"location_id": "136",
				"category_id": "169",
				"creation_date": "2016-01-29 14:17:27",
				"last_activity_date": "2016-01-29 14:17:27",
				"is_subscribed_by_connected_user": false
			},
			{
				"id": 2815883,
				"title": "krukor",
				"is_sold": 0,
				"sold_with_klarna": "0",
				"price": "40.00",
				"description": "Finns i Oxel\u00f6sund ",
				"comments_nb": 0,
				"klarna_enabled": 0,
				"shipping_method": [],
				"is_lyxloppis": 0,
				"on_his_blacklist": 0,
				"on_my_blacklist": 0,
				"in_favorites": 0,
				"link": "http:\/\/citiboard.se\/nykoping-oxelosund\/krukor,2815883",
				"comments": [],
				"picture": {
					"square": "http:\/\/cbsethumb.blob.core.windows.net\/350x300c\/ab\/60\/40\/krukor-5814237.jpg",
					"big": "http:\/\/cbsethumb.blob.core.windows.net\/350x300c\/ab\/60\/40\/krukor-5814237.jpg",
					"full": "http:\/\/cbsethumb.blob.core.windows.net\/534x389\/ab\/60\/40\/krukor-5814237.jpg"
				},
				"pictures_count": 1,
				"tel_num": "",
				"owner_name": "P\u00e4ivi",
				"owner_id": 624870165,
				"owner_avatar": "http:\/\/cbseavatarthumb.blob.core.windows.net\/default\/0c\/ce\/e9\/user-624870165.jpg",
				"facebook_id": 0,
				"location_info": "S\u00f6dermanland, Nyk\u00f6ping \/ Oxel\u00f6sund",
				"location_id": "179",
				"category_id": "272",
				"creation_date": "2016-01-29 14:15:43",
				"last_activity_date": "2016-01-29 14:15:43",
				"is_subscribed_by_connected_user": false
			},
			{
				"id": 2791981,
				"title": "Uelt ny UV lampa f\u00f6r h\u00e4rdning av naglar",
				"is_sold": 0,
				"sold_with_klarna": "0",
				"price": "400.00",
				"description": "ELLE UV lampa. Aldrig anv\u00e4nd. Uttagbar botten, spegel inuti, timer, salongskvalit\u00e9. Den har allt som en proffessionell h\u00e4rdare ska ha.",
				"comments_nb": 0,
				"klarna_enabled": 0,
				"shipping_method": [],
				"is_lyxloppis": 0,
				"on_his_blacklist": 0,
				"on_my_blacklist": 0,
				"in_favorites": 0,
				"link": "http:\/\/citiboard.se\/boras-mark-bollebygd\/uelt-ny-uv-lampa-for-hardning-av-naglar,2791981",
				"comments": [],
				"picture": {
					"square": "http:\/\/cbsethumb.blob.core.windows.net\/350x300c\/f5\/3e\/47\/uelt-ny-uv-lampa-for-hardning-av-naglar-5814229.jpg",
					"big": "http:\/\/cbsethumb.blob.core.windows.net\/350x300c\/f5\/3e\/47\/uelt-ny-uv-lampa-for-hardning-av-naglar-5814229.jpg",
					"full": "http:\/\/cbsethumb.blob.core.windows.net\/534x389\/f5\/3e\/47\/uelt-ny-uv-lampa-for-hardning-av-naglar-5814229.jpg"
				},
				"pictures_count": 1,
				"tel_num": "",
				"owner_name": "P\u00e4rlan",
				"owner_id": 10206227985198531,
				"owner_avatar": "http:\/\/cbseavatarthumb.blob.core.windows.net\/default\/cd\/0e\/21\/user-10206227985198531.jpg",
				"facebook_id": 0,
				"location_info": "V\u00e4stra G\u00f6taland, Bor\u00e5s \/ Mark \/ Bollebygd",
				"location_id": "327",
				"category_id": "34",
				"creation_date": "2016-01-14 00:52:37",
				"last_activity_date": "2016-01-29 14:15:18",
				"is_subscribed_by_connected_user": false
			},
			{
				"id": 2815881,
				"title": "nallebj\u00f6rn",
				"is_sold": 0,
				"sold_with_klarna": "0",
				"price": "300.00",
				"description": "nalle stor ",
				"comments_nb": 0,
				"klarna_enabled": 0,
				"shipping_method": [],
				"is_lyxloppis": 0,
				"on_his_blacklist": 0,
				"on_my_blacklist": 0,
				"in_favorites": 0,
				"link": "http:\/\/citiboard.se\/uppsala\/nallebjorn,2815881",
				"comments": [],
				"picture": {
					"square": "http:\/\/cbsethumb.blob.core.windows.net\/350x300c\/7e\/23\/f8\/nallebjorn-5814223.jpg",
					"big": "http:\/\/cbsethumb.blob.core.windows.net\/350x300c\/7e\/23\/f8\/nallebjorn-5814223.jpg",
					"full": "http:\/\/cbsethumb.blob.core.windows.net\/534x389\/7e\/23\/f8\/nallebjorn-5814223.jpg"
				},
				"pictures_count": 1,
				"tel_num": "0700360797",
				"owner_name": "Sara",
				"owner_id": 10206227985219159,
				"owner_avatar": "http:\/\/cbseavatarthumb.blob.core.windows.net\/default\/9d\/29\/b8\/user-10206227985219159.jpg",
				"facebook_id": 0,
				"location_info": "Uppsala, Uppsala",
				"location_id": "217",
				"category_id": "47",
				"creation_date": "2016-01-29 14:13:27",
				"last_activity_date": "2016-01-29 14:13:27",
				"is_subscribed_by_connected_user": false
			},
			{
				"id": 2815879,
				"title": "100st nagelfilar",
				"is_sold": 0,
				"sold_with_klarna": "0",
				"price": "50.00",
				"description": "100st tv\u00e5sidiga nagelfilar ",
				"comments_nb": 0,
				"klarna_enabled": 0,
				"shipping_method": [],
				"is_lyxloppis": 0,
				"on_his_blacklist": 0,
				"on_my_blacklist": 0,
				"in_favorites": 0,
				"link": "http:\/\/citiboard.se\/boras-mark-bollebygd\/100st-nagelfilar,2815879",
				"comments": [],
				"picture": {
					"square": "http:\/\/cbsethumb.blob.core.windows.net\/350x300c\/6b\/32\/a2\/100st-nagelfilar-5814221.jpg",
					"big": "http:\/\/cbsethumb.blob.core.windows.net\/350x300c\/6b\/32\/a2\/100st-nagelfilar-5814221.jpg",
					"full": "http:\/\/cbsethumb.blob.core.windows.net\/534x389\/6b\/32\/a2\/100st-nagelfilar-5814221.jpg"
				},
				"pictures_count": 1,
				"tel_num": "",
				"owner_name": "FyndaFint",
				"owner_id": 10206227985198531,
				"owner_avatar": "http:\/\/cbseavatarthumb.blob.core.windows.net\/default\/cd\/0e\/21\/user-10206227985198531.jpg",
				"facebook_id": 0,
				"location_info": "V\u00e4stra G\u00f6taland, Bor\u00e5s \/ Mark \/ Bollebygd",
				"location_id": "327",
				"category_id": "111",
				"creation_date": "2016-01-29 14:13:20",
				"last_activity_date": "2016-01-29 14:13:20",
				"is_subscribed_by_connected_user": false
			},
			{
				"id": 2815877,
				"title": "Telefon",
				"is_sold": 0,
				"sold_with_klarna": "0",
				"price": "50.00",
				"description": "Bra",
				"comments_nb": 0,
				"klarna_enabled": 0,
				"shipping_method": [],
				"is_lyxloppis": 0,
				"on_his_blacklist": 0,
				"on_my_blacklist": 0,
				"in_favorites": 0,
				"link": "http:\/\/citiboard.se\/norrkoping\/telefon,2815877",
				"comments": [],
				"picture": {
					"square": "http:\/\/cbsethumb.blob.core.windows.net\/350x300c\/08\/a2\/5a\/telefon-5814215.jpg",
					"big": "http:\/\/cbsethumb.blob.core.windows.net\/350x300c\/08\/a2\/5a\/telefon-5814215.jpg",
					"full": "http:\/\/cbsethumb.blob.core.windows.net\/534x389\/08\/a2\/5a\/telefon-5814215.jpg"
				},
				"pictures_count": 1,
				"tel_num": "0765839415",
				"owner_name": "Ronny",
				"owner_id": 100001998407920,
				"owner_avatar": "http:\/\/cbseavatarthumb.blob.core.windows.net\/default\/0f\/ce\/09\/user-100001998407920.jpg",
				"facebook_id": 0,
				"location_info": "\u00d6sterg\u00f6tland, Norrk\u00f6ping",
				"location_id": "136",
				"category_id": "34",
				"creation_date": "2016-01-29 14:11:58",
				"last_activity_date": "2016-01-29 14:11:58",
				"is_subscribed_by_connected_user": false
			},
			{
				"id": 1306147,
				"title": "Vadderad hundv\u00e4st, NY!! ",
				"is_sold": 0,
				"sold_with_klarna": "0",
				"price": "210.00",
				"description": "Vadderad v\u00e4st fr\u00e5n puppy-angel. Storlek M ( br\u00f6stkorg 36cm, hals 25cm, l\u00e4ngd 30,5 cm ).\nBra kn\u00e4ppning p\u00e5 den och h\u00e5ller v\u00e4rmen runt hela kroppen. G\u00e5r att v\u00e4nda ut och in f\u00f6r att f\u00e5 ett annat m\u00f6nster, ",
				"comments_nb": 4,
				"klarna_enabled": 0,
				"shipping_method": [],
				"is_lyxloppis": 0,
				"on_his_blacklist": 0,
				"on_my_blacklist": 0,
				"in_favorites": 0,
				"link": "http:\/\/citiboard.se\/skelleftea\/vadderad-hundvast-ny,1306147",
				"comments": [
					{
						"id": "4337347",
						"body": "Den \u00e4r kvar",
						"author_name": "Frida",
						"author_id": "100000772804102",
						"author_avatar": "http:\/\/cbseavatarthumb.blob.core.windows.net\/default\/0b\/55\/a4\/user-100000772804102.jpg",
						"creation_date": "2016-01-05 11:23:59"
					},
					{
						"id": "4313753",
						"body": "Kvar?",
						"author_name": "Emma",
						"author_id": "100001436637946",
						"author_avatar": "http:\/\/cbseavatarthumb.blob.core.windows.net\/default\/15\/79\/59\/user-100001436637946.jpg",
						"creation_date": "2015-12-22 23:58:34"
					},
					{
						"id": "3447739",
						"body": "N\u00e4 vi skulle ha den f\u00f6rra vintern d\u00e5 hon var valp, men hon var lite rund. Blandning lhasa apso och shih tzu. Storleksm\u00e4ssigt \u00e4r v\u00e4sten till f\u00f6r hundar f\u00f6r ca 4 kg",
						"author_name": "Frida",
						"author_id": "100000772804102",
						"author_avatar": "http:\/\/cbseavatarthumb.blob.core.windows.net\/default\/0b\/55\/a4\/user-100000772804102.jpg",
						"creation_date": "2015-01-23 13:33:21"
					}
				],
				"picture": {
					"square": "http:\/\/cbsethumb.blob.core.windows.net\/350x300c\/35\/9f\/8b\/vadderad-hundvast-ny-5814217.jpg",
					"big": "http:\/\/cbsethumb.blob.core.windows.net\/350x300c\/35\/9f\/8b\/vadderad-hundvast-ny-5814217.jpg",
					"full": "http:\/\/cbsethumb.blob.core.windows.net\/534x389\/35\/9f\/8b\/vadderad-hundvast-ny-5814217.jpg"
				},
				"pictures_count": 1,
				"tel_num": "0738038935",
				"owner_name": "Frida",
				"owner_id": 100000772804102,
				"owner_avatar": "http:\/\/cbseavatarthumb.blob.core.windows.net\/default\/0b\/55\/a4\/user-100000772804102.jpg",
				"facebook_id": 0,
				"location_info": "V\u00e4sterbotten, Skellefte\u00e5",
				"location_id": "242",
				"category_id": "25",
				"creation_date": "2014-01-26 15:28:18",
				"last_activity_date": "2016-01-29 14:11:18",
				"is_subscribed_by_connected_user": false
			},
			{
				"id": 2620381,
				"title": "Morris-tr\u00f6ja L\/XL ",
				"is_sold": 0,
				"sold_with_klarna": "0",
				"price": "600.00",
				"description": "Morris Brit marinbl\u00e5, k\u00f6pt p\u00e5 Johnells. Strl XL. 600:- (nypris 1299:-). Nyskick, anv\u00e4nd endast f\u00e5tal g\u00e5nger. Finns i centrala Nyk\u00f6ping. ",
				"comments_nb": 1,
				"klarna_enabled": 0,
				"shipping_method": [],
				"is_lyxloppis": 0,
				"on_his_blacklist": 0,
				"on_my_blacklist": 0,
				"in_favorites": 0,
				"link": "http:\/\/citiboard.se\/nykoping-oxelosund\/morris-troja-l-xl,2620381",
				"comments": [
					{
						"id": "4390099",
						"body": "Kvar?",
						"author_name": "Luiz",
						"author_id": "10206227985315645",
						"author_avatar": "http:\/\/cbseavatarthumb.blob.core.windows.net\/default\/58\/f1\/d4\/user-10206227985315645.jpg",
						"creation_date": "2016-01-29 14:10:55"
					}
				],
				"picture": {
					"square": "http:\/\/cbsethumb.blob.core.windows.net\/350x300c\/c8\/f0\/d6\/morris-troja-l-xl-5613049.jpg",
					"big": "http:\/\/cbsethumb.blob.core.windows.net\/350x300c\/c8\/f0\/d6\/morris-troja-l-xl-5613049.jpg",
					"full": "http:\/\/cbsethumb.blob.core.windows.net\/534x389\/c8\/f0\/d6\/morris-troja-l-xl-5613049.jpg"
				},
				"pictures_count": 1,
				"tel_num": "",
				"owner_name": "Gita",
				"owner_id": 100000903625462,
				"owner_avatar": "http:\/\/cbseavatarthumb.blob.core.windows.net\/default\/42\/95\/66\/user-100000903625462.jpg",
				"facebook_id": 0,
				"location_info": "S\u00f6dermanland, Nyk\u00f6ping \/ Oxel\u00f6sund",
				"location_id": "179",
				"category_id": "340",
				"creation_date": "2015-09-18 14:11:04",
				"last_activity_date": "2016-01-29 14:10:56",
				"is_subscribed_by_connected_user": false
			},
			{
				"id": 2813633,
				"title": "Helt ny jacka ",
				"is_sold": 0,
				"sold_with_klarna": "0",
				"price": "800.00",
				"description": "Storlek s ny med lappar. Ordpris 1300:-",
				"comments_nb": 0,
				"klarna_enabled": 0,
				"shipping_method": [],
				"is_lyxloppis": 0,
				"on_his_blacklist": 0,
				"on_my_blacklist": 0,
				"in_favorites": 0,
				"link": "http:\/\/citiboard.se\/rattvik\/helt-ny-jacka,2813633",
				"comments": [],
				"picture": {
					"square": "http:\/\/cbsethumb.blob.core.windows.net\/350x300c\/06\/3a\/6f\/helt-ny-jacka-5814209.jpg",
					"big": "http:\/\/cbsethumb.blob.core.windows.net\/350x300c\/06\/3a\/6f\/helt-ny-jacka-5814209.jpg",
					"full": "http:\/\/cbsethumb.blob.core.windows.net\/534x389\/06\/3a\/6f\/helt-ny-jacka-5814209.jpg"
				},
				"pictures_count": 1,
				"tel_num": "",
				"owner_name": "Sofie",
				"owner_id": 10206227985313857,
				"owner_avatar": "http:\/\/cbseavatarthumb.blob.core.windows.net\/default\/ec\/ef\/c5\/user-10206227985313857.jpg",
				"facebook_id": 0,
				"location_info": "Dalarna, R\u00e4ttvik",
				"location_id": "39",
				"category_id": "316",
				"creation_date": "2016-01-27 23:36:06",
				"last_activity_date": "2016-01-29 14:10:29",
				"is_subscribed_by_connected_user": false
			},
			{
				"id": 1486775,
				"title": "Navkapslar",
				"is_sold": 0,
				"sold_with_klarna": "0",
				"price": "150.00",
				"description": "navkapsel till Volvo 240 serien \r\nN\u00e5s p\u00e5 Tel: 0738027526 Kalix\/Grytn\u00e4s",
				"comments_nb": 2,
				"klarna_enabled": 0,
				"shipping_method": [],
				"is_lyxloppis": 0,
				"on_his_blacklist": 0,
				"on_my_blacklist": 0,
				"in_favorites": 0,
				"link": "http:\/\/citiboard.se\/kalix\/navkapslar,1486775",
				"comments": [
					{
						"id": "4390095",
						"body": "Nej med rekomenderat mvh. Du kan f\u00e5 billigare pris",
						"author_name": "Sun",
						"author_id": "10206227985275635",
						"author_avatar": "http:\/\/cbseavatarthumb.blob.core.windows.net\/default\/83\/23\/80\/user-10206227985275635.jpg",
						"creation_date": "2016-01-29 14:09:42"
					},
					{
						"id": "4388023",
						"body": "Kan dom skickas med postf\u00f6rskott?",
						"author_name": "Emil",
						"author_id": "10206227985315205",
						"author_avatar": "http:\/\/cbseavatarthumb.blob.core.windows.net\/default\/f3\/41\/69\/user-10206227985315205.jpg",
						"creation_date": "2016-01-28 12:25:15"
					}
				],
				"picture": {
					"square": "http:\/\/cbsethumb.blob.core.windows.net\/350x300c\/9b\/48\/7a\/navkapslar-2698625.jpg",
					"big": "http:\/\/cbsethumb.blob.core.windows.net\/350x300c\/9b\/48\/7a\/navkapslar-2698625.jpg",
					"full": "http:\/\/cbsethumb.blob.core.windows.net\/534x389\/9b\/48\/7a\/navkapslar-2698625.jpg"
				},
				"pictures_count": 1,
				"tel_num": "0738027526",
				"owner_name": "Niklas",
				"owner_id": 100007833610518,
				"owner_avatar": "http:\/\/cbseavatarthumb.blob.core.windows.net\/default\/a6\/a4\/2f\/user-100007833610518.jpg",
				"facebook_id": 0,
				"location_info": "Norrbotten, Kalix",
				"location_id": "110",
				"category_id": "232",
				"creation_date": "2014-03-18 18:05:45",
				"last_activity_date": "2016-01-29 14:09:42",
				"is_subscribed_by_connected_user": false
			},
			{
				"id": 2815875,
				"title": "kruka ",
				"is_sold": 0,
				"sold_with_klarna": "0",
				"price": "20.00",
				"description": "Finns i Oxel\u00f6sund ",
				"comments_nb": 0,
				"klarna_enabled": 0,
				"shipping_method": [],
				"is_lyxloppis": 0,
				"on_his_blacklist": 0,
				"on_my_blacklist": 0,
				"in_favorites": 0,
				"link": "http:\/\/citiboard.se\/nykoping-oxelosund\/kruka,2815875",
				"comments": [],
				"picture": {
					"square": "http:\/\/cbsethumb.blob.core.windows.net\/350x300c\/79\/b3\/fa\/kruka-5814207.jpg",
					"big": "http:\/\/cbsethumb.blob.core.windows.net\/350x300c\/79\/b3\/fa\/kruka-5814207.jpg",
					"full": "http:\/\/cbsethumb.blob.core.windows.net\/534x389\/79\/b3\/fa\/kruka-5814207.jpg"
				},
				"pictures_count": 1,
				"tel_num": "",
				"owner_name": "P\u00e4ivi",
				"owner_id": 624870165,
				"owner_avatar": "http:\/\/cbseavatarthumb.blob.core.windows.net\/default\/0c\/ce\/e9\/user-624870165.jpg",
				"facebook_id": 0,
				"location_info": "S\u00f6dermanland, Nyk\u00f6ping \/ Oxel\u00f6sund",
				"location_id": "179",
				"category_id": "272",
				"creation_date": "2016-01-29 14:07:19",
				"last_activity_date": "2016-01-29 14:07:19",
				"is_subscribed_by_connected_user": false
			},
			{
				"id": 2815707,
				"title": "Tv 26tum ",
				"is_sold": 0,
				"sold_with_klarna": "0",
				"price": "100.00",
				"description": "Fungerar bra. Men har en tunn reva p\u00e5 utsidan av sk\u00e4rmen. D\u00e4rav det l\u00e5ga priset \n\nFinns i G\u00e4vle \n",
				"comments_nb": 0,
				"klarna_enabled": 0,
				"shipping_method": [],
				"is_lyxloppis": 0,
				"on_his_blacklist": 0,
				"on_my_blacklist": 0,
				"in_favorites": 0,
				"link": "http:\/\/citiboard.se\/gavle-soderhamn-hudiksvall-sandviken\/tv-26tum,2815707",
				"comments": [],
				"picture": {
					"square": "http:\/\/cbsethumb.blob.core.windows.net\/350x300c\/98\/c6\/cc\/tv-26tum-5814201.jpg",
					"big": "http:\/\/cbsethumb.blob.core.windows.net\/350x300c\/98\/c6\/cc\/tv-26tum-5814201.jpg",
					"full": "http:\/\/cbsethumb.blob.core.windows.net\/534x389\/98\/c6\/cc\/tv-26tum-5814201.jpg"
				},
				"pictures_count": 1,
				"tel_num": "",
				"owner_name": "Nina",
				"owner_id": 10206227985232467,
				"owner_avatar": "http:\/\/cbseavatarthumb.blob.core.windows.net\/default\/d4\/bd\/67\/user-10206227985232467.jpg",
				"facebook_id": 0,
				"location_info": "G\u00e4vleborg, G\u00e4vle \/ S\u00f6derhamn \/ Hudiksvall \/ Sandviken",
				"location_id": "322",
				"category_id": "171",
				"creation_date": "2016-01-29 12:32:49",
				"last_activity_date": "2016-01-29 14:07:06",
				"is_subscribed_by_connected_user": false
			},
			{
				"id": 2815873,
				"title": "krukor ",
				"is_sold": 0,
				"sold_with_klarna": "0",
				"price": "20.00",
				"description": "Finns i Oxel\u00f6sund ",
				"comments_nb": 0,
				"klarna_enabled": 0,
				"shipping_method": [],
				"is_lyxloppis": 0,
				"on_his_blacklist": 0,
				"on_my_blacklist": 0,
				"in_favorites": 0,
				"link": "http:\/\/citiboard.se\/nykoping-oxelosund\/krukor,2815873",
				"comments": [],
				"picture": {
					"square": "http:\/\/cbsethumb.blob.core.windows.net\/350x300c\/0e\/94\/61\/krukor-5814199.jpg",
					"big": "http:\/\/cbsethumb.blob.core.windows.net\/350x300c\/0e\/94\/61\/krukor-5814199.jpg",
					"full": "http:\/\/cbsethumb.blob.core.windows.net\/534x389\/0e\/94\/61\/krukor-5814199.jpg"
				},
				"pictures_count": 1,
				"tel_num": "",
				"owner_name": "P\u00e4ivi",
				"owner_id": 624870165,
				"owner_avatar": "http:\/\/cbseavatarthumb.blob.core.windows.net\/default\/0c\/ce\/e9\/user-624870165.jpg",
				"facebook_id": 0,
				"location_info": "S\u00f6dermanland, Nyk\u00f6ping \/ Oxel\u00f6sund",
				"location_id": "179",
				"category_id": "272",
				"creation_date": "2016-01-29 14:06:03",
				"last_activity_date": "2016-01-29 14:06:03",
				"is_subscribed_by_connected_user": false
			},
			{
				"id": 2815871,
				"title": "zinkhinkar",
				"is_sold": 0,
				"sold_with_klarna": "0",
				"price": "50.00",
				"description": "Finns i Oxel\u00f6sund ",
				"comments_nb": 0,
				"klarna_enabled": 0,
				"shipping_method": [],
				"is_lyxloppis": 0,
				"on_his_blacklist": 0,
				"on_my_blacklist": 0,
				"in_favorites": 0,
				"link": "http:\/\/citiboard.se\/nykoping-oxelosund\/zinkhinkar,2815871",
				"comments": [],
				"picture": {
					"square": "http:\/\/cbsethumb.blob.core.windows.net\/350x300c\/a1\/16\/17\/zinkhinkar-5814193.jpg",
					"big": "http:\/\/cbsethumb.blob.core.windows.net\/350x300c\/a1\/16\/17\/zinkhinkar-5814193.jpg",
					"full": "http:\/\/cbsethumb.blob.core.windows.net\/534x389\/a1\/16\/17\/zinkhinkar-5814193.jpg"
				},
				"pictures_count": 1,
				"tel_num": "",
				"owner_name": "P\u00e4ivi",
				"owner_id": 624870165,
				"owner_avatar": "http:\/\/cbseavatarthumb.blob.core.windows.net\/default\/0c\/ce\/e9\/user-624870165.jpg",
				"facebook_id": 0,
				"location_info": "S\u00f6dermanland, Nyk\u00f6ping \/ Oxel\u00f6sund",
				"location_id": "179",
				"category_id": "272",
				"creation_date": "2016-01-29 14:03:20",
				"last_activity_date": "2016-01-29 14:03:20",
				"is_subscribed_by_connected_user": false
			},
			{
				"id": 2815065,
				"title": "Snygg l\u00e4cker lila tavla 70\u202290",
				"is_sold": 0,
				"sold_with_klarna": "0",
				"price": "801.00",
				"description": "En mycket snygg h\u00e4rlig tavla i m\u00e5nga lila f\u00e4rger, \u00e4r i ett exemplar och orginal. \u00c4r signerad.",
				"comments_nb": 0,
				"klarna_enabled": 0,
				"shipping_method": [],
				"is_lyxloppis": 0,
				"on_his_blacklist": 0,
				"on_my_blacklist": 0,
				"in_favorites": 0,
				"link": "http:\/\/citiboard.se\/umea\/snygg-lacker-lila-tavla-7090,2815065",
				"comments": [],
				"picture": {
					"square": "http:\/\/cbsethumb.blob.core.windows.net\/350x300c\/fa\/14\/fc\/snygg-lacker-lila-tavla-7090-5814191.jpg",
					"big": "http:\/\/cbsethumb.blob.core.windows.net\/350x300c\/fa\/14\/fc\/snygg-lacker-lila-tavla-7090-5814191.jpg",
					"full": "http:\/\/cbsethumb.blob.core.windows.net\/534x389\/fa\/14\/fc\/snygg-lacker-lila-tavla-7090-5814191.jpg"
				},
				"pictures_count": 1,
				"tel_num": "",
				"owner_name": "Ingela",
				"owner_id": 1470466217,
				"owner_avatar": "http:\/\/cbseavatarthumb.blob.core.windows.net\/default\/2c\/cc\/ab\/user-1470466217.jpg",
				"facebook_id": 0,
				"location_info": "V\u00e4sterbotten, Ume\u00e5",
				"location_id": "245",
				"category_id": "71",
				"creation_date": "2016-01-28 21:01:50",
				"last_activity_date": "2016-01-29 14:02:06",
				"is_subscribed_by_connected_user": false
			},
			{
				"id": 2815869,
				"title": "Hurts Nordisk IKEA Bj\u00f6rk\/Gr\u00f6n p\u00e5 hjul  ",
				"is_sold": 0,
				"sold_with_klarna": "0",
				"price": "200.00",
				"description": "Hurts Nordisk IKEA Bj\u00f6rk\/Gr\u00f6n p\u00e5 hjul\r\n\r\nH 61 B46 D 71\r\n\r\n200:-",
				"comments_nb": 0,
				"klarna_enabled": 0,
				"shipping_method": [],
				"is_lyxloppis": 0,
				"on_his_blacklist": 0,
				"on_my_blacklist": 0,
				"in_favorites": 0,
				"link": "http:\/\/citiboard.se\/falun-borlange\/hurts-nordisk-ikea-bjork-gron-pa-hjul,2815869",
				"comments": [],
				"picture": {
					"square": "http:\/\/cbsethumb.blob.core.windows.net\/350x300c\/a2\/3e\/84\/hurts-nordisk-ikea-bjork-gron-pa-hjul-5814189.jpg",
					"big": "http:\/\/cbsethumb.blob.core.windows.net\/350x300c\/a2\/3e\/84\/hurts-nordisk-ikea-bjork-gron-pa-hjul-5814189.jpg",
					"full": "http:\/\/cbsethumb.blob.core.windows.net\/534x389\/a2\/3e\/84\/hurts-nordisk-ikea-bjork-gron-pa-hjul-5814189.jpg"
				},
				"pictures_count": 1,
				"tel_num": "070-6771833",
				"owner_name": "Anne-Louise",
				"owner_id": 10206227985221839,
				"owner_avatar": "http:\/\/cbseavatarthumb.blob.core.windows.net\/default\/b9\/0d\/8c\/user-10206227985221839.jpg",
				"facebook_id": 0,
				"location_info": "Dalarna, Falun \/ Borl\u00e4nge",
				"location_id": "317",
				"category_id": "76",
				"creation_date": "2016-01-29 14:01:16",
				"last_activity_date": "2016-01-29 14:01:16",
				"is_subscribed_by_connected_user": false
			},
			{
				"id": 2812209,
				"title": "Tv b\u00e4nk plus hylla fr\u00e5n halens ",
				"is_sold": 0,
				"sold_with_klarna": "0",
				"price": "",
				"description": "Budgivning\nLite sliten och gammal \nL\u00e5nad bild \nHar EJ glas f\u00f6nster till ",
				"comments_nb": 2,
				"klarna_enabled": 0,
				"shipping_method": [],
				"is_lyxloppis": 0,
				"on_his_blacklist": 0,
				"on_my_blacklist": 0,
				"in_favorites": 0,
				"link": "http:\/\/citiboard.se\/herrljunga\/tv-bank-plus-hylla-fran-halens,2812209",
				"comments": [
					{
						"id": "4390103",
						"body": "hur mycket kan du t\u00e4nka dig att ge? den har ingen dvd st\u00e4ll som p\u00e5 bilden",
						"author_name": "Lilli",
						"author_id": "100008448246048",
						"author_avatar": "http:\/\/cbseavatarthumb.blob.core.windows.net\/default\/de\/3b\/60\/user-100008448246048.jpg",
						"creation_date": "2016-01-29 14:13:15"
					},
					{
						"id": "4390079",
						"body": "Hur mkt",
						"author_name": "Jimmy",
						"author_id": "10206227985223127",
						"author_avatar": "http:\/\/cbseavatarthumb.blob.core.windows.net\/default\/3a\/50\/2f\/user-10206227985223127.jpg",
						"creation_date": "2016-01-29 14:00:58"
					}
				],
				"picture": {
					"square": "http:\/\/cbsethumb.blob.core.windows.net\/350x300c\/83\/74\/65\/tv-bank-plus-hylla-fran-halens-5805713.jpg",
					"big": "http:\/\/cbsethumb.blob.core.windows.net\/350x300c\/83\/74\/65\/tv-bank-plus-hylla-fran-halens-5805713.jpg",
					"full": "http:\/\/cbsethumb.blob.core.windows.net\/534x389\/83\/74\/65\/tv-bank-plus-hylla-fran-halens-5805713.jpg"
				},
				"pictures_count": 1,
				"tel_num": "",
				"owner_name": "Lilli",
				"owner_id": 100008448246048,
				"owner_avatar": "http:\/\/cbseavatarthumb.blob.core.windows.net\/default\/de\/3b\/60\/user-100008448246048.jpg",
				"facebook_id": 0,
				"location_info": "V\u00e4stra G\u00f6taland, Herrljunga",
				"location_id": "281",
				"category_id": "76",
				"creation_date": "2016-01-27 01:11:51",
				"last_activity_date": "2016-01-29 14:00:58",
				"is_subscribed_by_connected_user": false
			},
			{
				"id": 2733667,
				"title": "iPhone 6 Svart 64 GB",
				"is_sold": 0,
				"sold_with_klarna": "0",
				"price": "4899.00",
				"description": "iPhone 6 Svart 64 GB\r\nN\u00e4stan nya\r\nKvitto\r\nOl\u00e5st",
				"comments_nb": 1,
				"klarna_enabled": 1,
				"shipping_method": [
					{
						"name": "shipping3",
						"label": "Postnord (Posten)",
						"price": "60"
					}
				],
				"is_lyxloppis": 0,
				"on_his_blacklist": 0,
				"on_my_blacklist": 0,
				"in_favorites": 0,
				"link": "http:\/\/citiboard.se\/boras-mark-bollebygd\/iphone-6-svart-64-gb,2733667",
				"comments": [
					{
						"id": "4390077",
						"body": "Finns kvar ?",
						"author_name": "Ahmad",
						"author_id": "10206227985281443",
						"author_avatar": "http:\/\/cbseavatarthumb.blob.core.windows.net\/default\/ee\/a3\/82\/user-10206227985281443.jpg",
						"creation_date": "2016-01-29 14:00:57"
					}
				],
				"picture": {
					"square": "http:\/\/cbsethumb.blob.core.windows.net\/350x300c\/ed\/d5\/d0\/iphone-6-svart-64-gb-5616623.jpg",
					"big": "http:\/\/cbsethumb.blob.core.windows.net\/350x300c\/ed\/d5\/d0\/iphone-6-svart-64-gb-5616623.jpg",
					"full": "http:\/\/cbsethumb.blob.core.windows.net\/534x389\/ed\/d5\/d0\/iphone-6-svart-64-gb-5616623.jpg"
				},
				"pictures_count": 1,
				"tel_num": "0768242984",
				"owner_name": "Osama",
				"owner_id": 658176415,
				"owner_avatar": "http:\/\/cbseavatarthumb.blob.core.windows.net\/default\/f0\/c7\/52\/user-658176415.jpg",
				"facebook_id": 0,
				"location_info": "V\u00e4stra G\u00f6taland, Bor\u00e5s \/ Mark \/ Bollebygd",
				"location_id": "327",
				"category_id": "173",
				"creation_date": "2015-11-28 02:36:07",
				"last_activity_date": "2016-01-29 14:00:57",
				"is_subscribed_by_connected_user": false
			},
			{
				"id": 2815867,
				"title": "plast hinkar",
				"is_sold": 0,
				"sold_with_klarna": "0",
				"price": "20.00",
				"description": "Finns i Oxel\u00f6sund  20kr\/st",
				"comments_nb": 0,
				"klarna_enabled": 0,
				"shipping_method": [],
				"is_lyxloppis": 0,
				"on_his_blacklist": 0,
				"on_my_blacklist": 0,
				"in_favorites": 0,
				"link": "http:\/\/citiboard.se\/nykoping-oxelosund\/plast-hinkar,2815867",
				"comments": [],
				"picture": {
					"square": "http:\/\/cbsethumb.blob.core.windows.net\/350x300c\/0c\/40\/50\/plast-hinkar-5814179.jpg",
					"big": "http:\/\/cbsethumb.blob.core.windows.net\/350x300c\/0c\/40\/50\/plast-hinkar-5814179.jpg",
					"full": "http:\/\/cbsethumb.blob.core.windows.net\/534x389\/0c\/40\/50\/plast-hinkar-5814179.jpg"
				},
				"pictures_count": 1,
				"tel_num": "",
				"owner_name": "P\u00e4ivi",
				"owner_id": 624870165,
				"owner_avatar": "http:\/\/cbseavatarthumb.blob.core.windows.net\/default\/0c\/ce\/e9\/user-624870165.jpg",
				"facebook_id": 0,
				"location_info": "S\u00f6dermanland, Nyk\u00f6ping \/ Oxel\u00f6sund",
				"location_id": "179",
				"category_id": "272",
				"creation_date": "2016-01-29 14:00:34",
				"last_activity_date": "2016-01-29 14:00:34",
				"is_subscribed_by_connected_user": false
			},
			{
				"id": 1983965,
				"title": "Kl\u00e4dpaket till flicka",
				"is_sold": 0,
				"sold_with_klarna": "0",
				"price": "150.00",
				"description": "Olika typer av plagg.\nFint skick. \n",
				"comments_nb": 1,
				"klarna_enabled": 0,
				"shipping_method": [],
				"is_lyxloppis": 0,
				"on_his_blacklist": 0,
				"on_my_blacklist": 0,
				"in_favorites": 0,
				"link": "http:\/\/citiboard.se\/umea\/kladpaket-till-flicka,1983965",
				"comments": [
					{
						"id": "4390075",
						"body": "Hej! Vart finns kl\u00e4derna? Skulle man kunna f\u00e5 plocka ut vissa kl\u00e4der bara?",
						"author_name": "Kristin",
						"author_id": "814169324",
						"author_avatar": "http:\/\/cbseavatarthumb.blob.core.windows.net\/default\/ef\/14\/d6\/user-814169324.jpg",
						"creation_date": "2016-01-29 14:00:01"
					}
				],
				"picture": {
					"square": "http:\/\/cbsethumb.blob.core.windows.net\/350x300c\/b2\/8a\/ba\/kladpaket-till-flicka-3878063.jpg",
					"big": "http:\/\/cbsethumb.blob.core.windows.net\/350x300c\/b2\/8a\/ba\/kladpaket-till-flicka-3878063.jpg",
					"full": "http:\/\/cbsethumb.blob.core.windows.net\/534x389\/b2\/8a\/ba\/kladpaket-till-flicka-3878063.jpg"
				},
				"pictures_count": 1,
				"tel_num": "",
				"owner_name": "Sandra",
				"owner_id": 705250507,
				"owner_avatar": "http:\/\/cbseavatarthumb.blob.core.windows.net\/default\/d8\/36\/fc\/user-705250507.jpg",
				"facebook_id": 0,
				"location_info": "V\u00e4sterbotten, Ume\u00e5",
				"location_id": "245",
				"category_id": "42",
				"creation_date": "2014-10-21 13:10:28",
				"last_activity_date": "2016-01-29 14:00:01",
				"is_subscribed_by_connected_user": false
			},
			{
				"id": 2815865,
				"title": "Vibrationsplatta ",
				"is_sold": 0,
				"sold_with_klarna": "0",
				"price": "300.00",
				"description": "H\u00e4mtas i Timr\u00e5 ",
				"comments_nb": 0,
				"klarna_enabled": 0,
				"shipping_method": [],
				"is_lyxloppis": 0,
				"on_his_blacklist": 0,
				"on_my_blacklist": 0,
				"in_favorites": 0,
				"link": "http:\/\/citiboard.se\/sundsvall\/vibrationsplatta,2815865",
				"comments": [],
				"picture": {
					"square": "http:\/\/cbsethumb.blob.core.windows.net\/350x300c\/e6\/27\/84\/vibrationsplatta-5814177.jpg",
					"big": "http:\/\/cbsethumb.blob.core.windows.net\/350x300c\/e6\/27\/84\/vibrationsplatta-5814177.jpg",
					"full": "http:\/\/cbsethumb.blob.core.windows.net\/534x389\/e6\/27\/84\/vibrationsplatta-5814177.jpg"
				},
				"pictures_count": 1,
				"tel_num": "0738087427",
				"owner_name": "Mats",
				"owner_id": 100003217683724,
				"owner_avatar": "http:\/\/cbseavatarthumb.blob.core.windows.net\/default\/ef\/fb\/78\/user-100003217683724.jpg",
				"facebook_id": 0,
				"location_info": "V\u00e4sternorrland, Sundsvall",
				"location_id": "254",
				"category_id": "265",
				"creation_date": "2016-01-29 13:59:58",
				"last_activity_date": "2016-01-29 13:59:58",
				"is_subscribed_by_connected_user": false
			},
			{
				"id": 1347175,
				"title": "Hus s\u00e4ljes",
				"is_sold": 0,
				"sold_with_klarna": "0",
				"price": "80000.00",
				"description": "5rum och k\u00f6k! Kommunalt vatten och avlopp! Frist\u00e5ende garage! Ca 60meter ner till vattnet! J\u00e4tte bra l\u00e4ge! ",
				"comments_nb": 14,
				"klarna_enabled": 0,
				"shipping_method": [],
				"is_lyxloppis": 0,
				"on_his_blacklist": 0,
				"on_my_blacklist": 0,
				"in_favorites": 0,
				"link": "http:\/\/citiboard.se\/heby\/hus-saljes,1347175",
				"comments": [
					{
						"id": "4390073",
						"body": "Kvar?",
						"author_name": "Mona",
						"author_id": "573427437",
						"author_avatar": "http:\/\/cbseavatarthumb.blob.core.windows.net\/default\/3d\/43\/fd\/user-573427437.jpg",
						"creation_date": "2016-01-29 13:59:03"
					},
					{
						"id": "4390071",
						"body": "Kvar?",
						"author_name": "Mona",
						"author_id": "573427437",
						"author_avatar": "http:\/\/cbseavatarthumb.blob.core.windows.net\/default\/3d\/43\/fd\/user-573427437.jpg",
						"creation_date": "2016-01-29 13:59:00"
					},
					{
						"id": "4331539",
						"body": "\u00c4r huset kvar till salu?",
						"author_name": "Nanna",
						"author_id": "10206227985301873",
						"author_avatar": "http:\/\/cbseavatarthumb.blob.core.windows.net\/default\/92\/e0\/12\/user-10206227985301873.jpg",
						"creation_date": "2016-01-02 19:37:58"
					}
				],
				"picture": "",
				"pictures_count": 0,
				"tel_num": "0738772329",
				"owner_name": "Pelle",
				"owner_id": 1032868153,
				"owner_avatar": "http:\/\/cbseavatarthumb.blob.core.windows.net\/default\/b4\/6a\/03\/user-1032868153.jpg",
				"facebook_id": 0,
				"location_info": "Uppsala, Heby",
				"location_id": "213",
				"category_id": "19",
				"creation_date": "2014-02-10 13:43:24",
				"last_activity_date": "2016-01-29 13:59:04",
				"is_subscribed_by_connected_user": false
			},
			{
				"id": 2815083,
				"title": "Iphone 6s gold 16 gb ol\u00e5st",
				"is_sold": 0,
				"sold_with_klarna": "0",
				"price": "5200.00",
				"description": "S\u00e4ljer nu min iphone 6 16gb gold som \u00e4r helt ny. Ej \u00f6ppnad. Kvitto medf\u00f6ljer. Telefonen \u00e4r \u00e4ven ol\u00e5st.",
				"comments_nb": 0,
				"klarna_enabled": 0,
				"shipping_method": [],
				"is_lyxloppis": 0,
				"on_his_blacklist": 0,
				"on_my_blacklist": 0,
				"in_favorites": 0,
				"link": "http:\/\/citiboard.se\/boras-mark-bollebygd\/iphone-6s-gold-16-gb-olast,2815083",
				"comments": [],
				"picture": {
					"square": "http:\/\/cbsethumb.blob.core.windows.net\/350x300c\/e1\/70\/0c\/iphone-6s-gold-16-gb-olast-5812241.jpg",
					"big": "http:\/\/cbsethumb.blob.core.windows.net\/350x300c\/e1\/70\/0c\/iphone-6s-gold-16-gb-olast-5812241.jpg",
					"full": "http:\/\/cbsethumb.blob.core.windows.net\/534x389\/e1\/70\/0c\/iphone-6s-gold-16-gb-olast-5812241.jpg"
				},
				"pictures_count": 1,
				"tel_num": "0735438606",
				"owner_name": "AlexR",
				"owner_id": 10206227985297269,
				"owner_avatar": "http:\/\/cbseavatarthumb.blob.core.windows.net\/default\/2f\/50\/23\/user-10206227985297269.jpg",
				"facebook_id": 0,
				"location_info": "V\u00e4stra G\u00f6taland, Bor\u00e5s \/ Mark \/ Bollebygd",
				"location_id": "327",
				"category_id": "173",
				"creation_date": "2016-01-28 21:16:28",
				"last_activity_date": "2016-01-29 13:58:26",
				"is_subscribed_by_connected_user": false
			},
			{
				"id": 2815863,
				"title": "Bokhylla Ikea Nordisk p\u00e5 hjul  Bj\u00f6rk\/Gr\u00f6n  ",
				"is_sold": 0,
				"sold_with_klarna": "0",
				"price": "300.00",
				"description": "Bokhylla Ikea Nordisk p\u00e5 hjul\r\n\r\nBj\u00f6rk\/Gr\u00f6n\r\n\r\nH 161 B 42 D 38\r\n\r\n300:-",
				"comments_nb": 0,
				"klarna_enabled": 0,
				"shipping_method": [],
				"is_lyxloppis": 0,
				"on_his_blacklist": 0,
				"on_my_blacklist": 0,
				"in_favorites": 0,
				"link": "http:\/\/citiboard.se\/falun-borlange\/bokhylla-ikea-nordisk-pa-hjul-bjork-gron,2815863",
				"comments": [],
				"picture": {
					"square": "http:\/\/cbsethumb.blob.core.windows.net\/350x300c\/24\/b3\/d7\/bokhylla-ikea-nordisk-pa-hjul-bjork-gron-5814175.jpg",
					"big": "http:\/\/cbsethumb.blob.core.windows.net\/350x300c\/24\/b3\/d7\/bokhylla-ikea-nordisk-pa-hjul-bjork-gron-5814175.jpg",
					"full": "http:\/\/cbsethumb.blob.core.windows.net\/534x389\/24\/b3\/d7\/bokhylla-ikea-nordisk-pa-hjul-bjork-gron-5814175.jpg"
				},
				"pictures_count": 1,
				"tel_num": "070-6771833",
				"owner_name": "Anne-Louise",
				"owner_id": 10206227985221839,
				"owner_avatar": "http:\/\/cbseavatarthumb.blob.core.windows.net\/default\/b9\/0d\/8c\/user-10206227985221839.jpg",
				"facebook_id": 0,
				"location_info": "Dalarna, Falun \/ Borl\u00e4nge",
				"location_id": "317",
				"category_id": "76",
				"creation_date": "2016-01-29 13:58:24",
				"last_activity_date": "2016-01-29 13:58:24",
				"is_subscribed_by_connected_user": false
			},
			{
				"id": 1311777,
				"title": "Ryd\u00f6 21 - V8",
				"is_sold": 0,
				"sold_with_klarna": "0",
				"price": "35000.00",
				"description": "Ryds ryd\u00f6 21. \u00c5rsmodell -75. 6.30 x 2.20. Kojplatser 4. Motor volvo penta 200 D. Drev 290 B. Motoreffekt 200 hp. 36-40 knop. 30-trailer. ",
				"comments_nb": 0,
				"klarna_enabled": 0,
				"shipping_method": [],
				"is_lyxloppis": 0,
				"on_his_blacklist": 0,
				"on_my_blacklist": 0,
				"in_favorites": 0,
				"link": "http:\/\/citiboard.se\/varnamo\/rydo-21-v8,1311777",
				"comments": [],
				"picture": {
					"square": "http:\/\/cbsethumb.blob.core.windows.net\/350x300c\/c3\/ce\/53\/rydo-21-v8-2313693.jpg",
					"big": "http:\/\/cbsethumb.blob.core.windows.net\/350x300c\/c3\/ce\/53\/rydo-21-v8-2313693.jpg",
					"full": "http:\/\/cbsethumb.blob.core.windows.net\/534x389\/c3\/ce\/53\/rydo-21-v8-2313693.jpg"
				},
				"pictures_count": 1,
				"tel_num": "0763284260",
				"owner_name": "Ann",
				"owner_id": 639792686,
				"owner_avatar": "http:\/\/cbseavatarthumb.blob.core.windows.net\/default\/33\/f2\/78\/user-639792686.jpg",
				"facebook_id": 0,
				"location_info": "J\u00f6nk\u00f6ping, V\u00e4rnamo",
				"location_id": "81",
				"category_id": "180",
				"creation_date": "2014-01-28 21:20:48",
				"last_activity_date": "2016-01-29 13:57:36",
				"is_subscribed_by_connected_user": false
			},
			{
				"id": 2815861,
				"title": "Arbetssko ",
				"is_sold": 0,
				"sold_with_klarna": "0",
				"price": "250.00",
				"description": "Sievi arbetsskor str 45  bra skick. ",
				"comments_nb": 0,
				"klarna_enabled": 0,
				"shipping_method": [],
				"is_lyxloppis": 0,
				"on_his_blacklist": 0,
				"on_my_blacklist": 0,
				"in_favorites": 0,
				"link": "http:\/\/citiboard.se\/boras-mark-bollebygd\/arbetssko,2815861",
				"comments": [],
				"picture": {
					"square": "http:\/\/cbsethumb.blob.core.windows.net\/350x300c\/b4\/3a\/3d\/arbetssko-5814173.jpg",
					"big": "http:\/\/cbsethumb.blob.core.windows.net\/350x300c\/b4\/3a\/3d\/arbetssko-5814173.jpg",
					"full": "http:\/\/cbsethumb.blob.core.windows.net\/534x389\/b4\/3a\/3d\/arbetssko-5814173.jpg"
				},
				"pictures_count": 1,
				"tel_num": "",
				"owner_name": "Ahmed",
				"owner_id": 1473250797,
				"owner_avatar": "http:\/\/cbseavatarthumb.blob.core.windows.net\/default\/a5\/fa\/49\/user-1473250797.jpg",
				"facebook_id": 0,
				"location_info": "V\u00e4stra G\u00f6taland, Bor\u00e5s \/ Mark \/ Bollebygd",
				"location_id": "327",
				"category_id": "333",
				"creation_date": "2016-01-29 13:57:13",
				"last_activity_date": "2016-01-29 13:57:13",
				"is_subscribed_by_connected_user": false
			},
			{
				"id": 2808235,
				"title": "Helt ny ",
				"is_sold": 0,
				"sold_with_klarna": "0",
				"price": "350.00",
				"description": "helt ny skjorta ralphlauren \nNy pris: 1200kr\n\nFinns i stockholm (slusen) ",
				"comments_nb": 1,
				"klarna_enabled": 0,
				"shipping_method": [],
				"is_lyxloppis": 0,
				"on_his_blacklist": 0,
				"on_my_blacklist": 0,
				"in_favorites": 0,
				"link": "http:\/\/citiboard.se\/stockholm\/helt-ny,2808235",
				"comments": [
					{
						"id": "4390065",
						"body": "Kvar? Storlek?",
						"author_name": "Luiz",
						"author_id": "10206227985315645",
						"author_avatar": "http:\/\/cbseavatarthumb.blob.core.windows.net\/default\/58\/f1\/d4\/user-10206227985315645.jpg",
						"creation_date": "2016-01-29 13:57:08"
					}
				],
				"picture": {
					"square": "http:\/\/cbsethumb.blob.core.windows.net\/350x300c\/1f\/3f\/37\/helt-ny-5795627.jpg",
					"big": "http:\/\/cbsethumb.blob.core.windows.net\/350x300c\/1f\/3f\/37\/helt-ny-5795627.jpg",
					"full": "http:\/\/cbsethumb.blob.core.windows.net\/534x389\/1f\/3f\/37\/helt-ny-5795627.jpg"
				},
				"pictures_count": 1,
				"tel_num": "",
				"owner_name": "Khalid",
				"owner_id": 10206227985276801,
				"owner_avatar": "http:\/\/cbseavatarthumb.blob.core.windows.net\/default\/8d\/8b\/4f\/user-10206227985276801.jpg",
				"facebook_id": 0,
				"location_info": "Stockholm, Stockholm",
				"location_id": "201",
				"category_id": "339",
				"creation_date": "2016-01-24 16:29:43",
				"last_activity_date": "2016-01-29 13:57:08",
				"is_subscribed_by_connected_user": false
			},
			{
				"id": 2748915,
				"title": "Symaskinsbord",
				"is_sold": 0,
				"sold_with_klarna": "0",
				"price": "300.00",
				"description": "J\u00e4ttefint symaskinsbord- nytt tr\u00e4 - 300 kr eller bud ut\u00f6ver, ligger p fler sidor - avslut imorgon torsdag kl 21. H\u00e4mtas i b\u00e4ckag\u00e5rd",
				"comments_nb": 2,
				"klarna_enabled": 0,
				"shipping_method": [],
				"is_lyxloppis": 0,
				"on_his_blacklist": 0,
				"on_my_blacklist": 0,
				"in_favorites": 0,
				"link": "http:\/\/citiboard.se\/halmstad\/symaskinsbord,2748915",
				"comments": [
					{
						"id": "4390067",
						"body": "Synd att du inte svarar, kan ju inte veta vad som h\u00e4nder p\u00e5 andra sidor och f\u00e5r d\u00e5 inte chansen att buda :(",
						"author_name": "Carina",
						"author_id": "100000399156414",
						"author_avatar": "http:\/\/cbseavatarthumb.blob.core.windows.net\/default\/31\/c9\/78\/user-100000399156414.jpg",
						"creation_date": "2016-01-29 13:57:08"
					},
					{
						"id": "4385463",
						"body": "Vad \u00e4r det f\u00f6r m\u00e5tt p\u00e5 skivan? Budar 300kr",
						"author_name": "Carina",
						"author_id": "100000399156414",
						"author_avatar": "http:\/\/cbseavatarthumb.blob.core.windows.net\/default\/31\/c9\/78\/user-100000399156414.jpg",
						"creation_date": "2016-01-27 04:19:07"
					}
				],
				"picture": {
					"square": "http:\/\/cbsethumb.blob.core.windows.net\/350x300c\/73\/7d\/b9\/symaskinsbord-5653673.jpg",
					"big": "http:\/\/cbsethumb.blob.core.windows.net\/350x300c\/73\/7d\/b9\/symaskinsbord-5653673.jpg",
					"full": "http:\/\/cbsethumb.blob.core.windows.net\/534x389\/73\/7d\/b9\/symaskinsbord-5653673.jpg"
				},
				"pictures_count": 1,
				"tel_num": "",
				"owner_name": "Sara",
				"owner_id": 100001264185269,
				"owner_avatar": "http:\/\/cbseavatarthumb.blob.core.windows.net\/default\/3a\/7f\/16\/user-100001264185269.jpg",
				"facebook_id": 0,
				"location_info": "Halland, Halmstad",
				"location_id": "56",
				"category_id": "75",
				"creation_date": "2015-12-09 15:01:26",
				"last_activity_date": "2016-01-29 13:57:08",
				"is_subscribed_by_connected_user": false
			},
			{
				"id": 2808741,
				"title": "Csgo inventory, m9 bayonet ",
				"is_sold": 0,
				"sold_with_klarna": "0",
				"price": "600.00",
				"description": "Csgo inventory som \u00e4r v\u00e4rt ungef\u00e4r 800kr som jag s\u00e4ljer f\u00f6r mindre och det \u00e4r en m9 bayonet scorched field tested i. Anledning varf\u00f6r jag s\u00e4ljer \u00e4r f\u00f6r att jag helt enkelt tr\u00f6ttnat p\u00e5 spelet. Swisha h",
				"comments_nb": 0,
				"klarna_enabled": 0,
				"shipping_method": [],
				"is_lyxloppis": 0,
				"on_his_blacklist": 0,
				"on_my_blacklist": 0,
				"in_favorites": 0,
				"link": "http:\/\/citiboard.se\/haninge\/csgo-inventory-m9-bayonet,2808741",
				"comments": [],
				"picture": {
					"square": "http:\/\/cbsethumb.blob.core.windows.net\/350x300c\/ff\/d9\/97\/csgo-inventory-m9-bayonet-5814155.jpg",
					"big": "http:\/\/cbsethumb.blob.core.windows.net\/350x300c\/ff\/d9\/97\/csgo-inventory-m9-bayonet-5814155.jpg",
					"full": "http:\/\/cbsethumb.blob.core.windows.net\/534x389\/ff\/d9\/97\/csgo-inventory-m9-bayonet-5814155.jpg"
				},
				"pictures_count": 1,
				"tel_num": "",
				"owner_name": "Kevin",
				"owner_id": 100000499612117,
				"owner_avatar": "http:\/\/cbseavatarthumb.blob.core.windows.net\/default\/f5\/89\/cc\/user-100000499612117.jpg",
				"facebook_id": 0,
				"location_info": "Stockholm, Haninge",
				"location_id": "187",
				"category_id": "257",
				"creation_date": "2016-01-24 19:52:21",
				"last_activity_date": "2016-01-29 13:55:14",
				"is_subscribed_by_connected_user": false
			},
			{
				"id": 2752165,
				"title": "Fin kl\u00e4nning",
				"is_sold": 0,
				"sold_with_klarna": "0",
				"price": "150.00",
				"description": "Fin kl\u00e4nning stl 38\/40 \u00e4r sm\u00e5 sk\u00f6nhetsfel men inget man t\u00e4nker p\u00e5, m\u00e5ste ses ",
				"comments_nb": 2,
				"klarna_enabled": 0,
				"shipping_method": [],
				"is_lyxloppis": 0,
				"on_his_blacklist": 0,
				"on_my_blacklist": 0,
				"in_favorites": 0,
				"link": "http:\/\/citiboard.se\/halmstad\/fin-klanning,2752165",
				"comments": [
					{
						"id": "4390063",
						"body": "38\/40",
						"author_name": "Mia",
						"author_id": "651514600",
						"author_avatar": "http:\/\/cbseavatarthumb.blob.core.windows.net\/default\/f9\/01\/66\/user-651514600.jpg",
						"creation_date": "2016-01-29 13:56:37"
					},
					{
						"id": "4390061",
						"body": "Stlek",
						"author_name": "Azemina",
						"author_id": "100006346870654",
						"author_avatar": "http:\/\/cbseavatarthumb.blob.core.windows.net\/default\/2a\/99\/7f\/user-100006346870654.jpg",
						"creation_date": "2016-01-29 13:55:02"
					}
				],
				"picture": {
					"square": "http:\/\/cbsethumb.blob.core.windows.net\/350x300c\/cd\/2b\/6b\/fin-klanning-5813693.jpg",
					"big": "http:\/\/cbsethumb.blob.core.windows.net\/350x300c\/cd\/2b\/6b\/fin-klanning-5813693.jpg",
					"full": "http:\/\/cbsethumb.blob.core.windows.net\/534x389\/cd\/2b\/6b\/fin-klanning-5813693.jpg"
				},
				"pictures_count": 1,
				"tel_num": "",
				"owner_name": "Mia",
				"owner_id": 651514600,
				"owner_avatar": "http:\/\/cbseavatarthumb.blob.core.windows.net\/default\/f9\/01\/66\/user-651514600.jpg",
				"facebook_id": 0,
				"location_info": "Halland, Halmstad",
				"location_id": "56",
				"category_id": "332",
				"creation_date": "2015-12-12 12:44:53",
				"last_activity_date": "2016-01-29 13:55:02",
				"is_subscribed_by_connected_user": false
			},
			{
				"id": 2815857,
				"title": "krukor ",
				"is_sold": 0,
				"sold_with_klarna": "0",
				"price": "20.00",
				"description": "Finns i Oxel\u00f6sund   20kr\/st",
				"comments_nb": 0,
				"klarna_enabled": 0,
				"shipping_method": [],
				"is_lyxloppis": 0,
				"on_his_blacklist": 0,
				"on_my_blacklist": 0,
				"in_favorites": 0,
				"link": "http:\/\/citiboard.se\/nykoping-oxelosund\/krukor,2815857",
				"comments": [],
				"picture": {
					"square": "http:\/\/cbsethumb.blob.core.windows.net\/350x300c\/54\/4c\/c7\/krukor-5814145.jpg",
					"big": "http:\/\/cbsethumb.blob.core.windows.net\/350x300c\/54\/4c\/c7\/krukor-5814145.jpg",
					"full": "http:\/\/cbsethumb.blob.core.windows.net\/534x389\/54\/4c\/c7\/krukor-5814145.jpg"
				},
				"pictures_count": 1,
				"tel_num": "",
				"owner_name": "P\u00e4ivi",
				"owner_id": 624870165,
				"owner_avatar": "http:\/\/cbseavatarthumb.blob.core.windows.net\/default\/0c\/ce\/e9\/user-624870165.jpg",
				"facebook_id": 0,
				"location_info": "S\u00f6dermanland, Nyk\u00f6ping \/ Oxel\u00f6sund",
				"location_id": "179",
				"category_id": "272",
				"creation_date": "2016-01-29 13:54:48",
				"last_activity_date": "2016-01-29 13:54:48",
				"is_subscribed_by_connected_user": false
			},
			{
				"id": 2415785,
				"title": "Guideline pike shooter flugset.",
				"is_sold": 0,
				"sold_with_klarna": "0",
				"price": "",
				"description": "K\u00f6pte in detta under sommaren 2014 f\u00f6r 3000. Anv\u00e4nt en g\u00e5ng, sedan legat bara. Bud som g\u00e4ller!",
				"comments_nb": 3,
				"klarna_enabled": 0,
				"shipping_method": [],
				"is_lyxloppis": 0,
				"on_his_blacklist": 0,
				"on_my_blacklist": 0,
				"in_favorites": 0,
				"link": "http:\/\/citiboard.se\/umea\/guideline-pike-shooter-flugset,2415785",
				"comments": [
					{
						"id": "4390059",
						"body": "Finns detta kvar??",
						"author_name": "Johan",
						"author_id": "725126027",
						"author_avatar": "http:\/\/cbseavatarthumb.blob.core.windows.net\/default\/f9\/42\/0a\/user-725126027.jpg",
						"creation_date": "2016-01-29 13:54:45"
					},
					{
						"id": "3967445",
						"body": "600kr om allt ser bra ut i verkligheten",
						"author_name": "adam",
						"author_id": "10206227985217399",
						"author_avatar": "http:\/\/cbseavatarthumb.blob.core.windows.net\/default\/8e\/97\/4b\/user-10206227985217399.jpg",
						"creation_date": "2015-07-16 20:31:18"
					},
					{
						"id": "3939093",
						"body": "minimum?",
						"author_name": "Ahmed",
						"author_id": "10206227985172163",
						"author_avatar": "http:\/\/cbseavatarthumb.blob.core.windows.net\/default\/f0\/08\/f0\/user-10206227985172163.jpg",
						"creation_date": "2015-07-03 01:24:55"
					}
				],
				"picture": {
					"square": "http:\/\/cbsethumb.blob.core.windows.net\/350x300c\/33\/47\/8d\/guideline-pike-shooter-flugset-4889085.jpg",
					"big": "http:\/\/cbsethumb.blob.core.windows.net\/350x300c\/33\/47\/8d\/guideline-pike-shooter-flugset-4889085.jpg",
					"full": "http:\/\/cbsethumb.blob.core.windows.net\/534x389\/33\/47\/8d\/guideline-pike-shooter-flugset-4889085.jpg"
				},
				"pictures_count": 1,
				"tel_num": "",
				"owner_name": "Victor",
				"owner_id": 100000475664075,
				"owner_avatar": "http:\/\/cbseavatarthumb.blob.core.windows.net\/default\/8e\/b9\/79\/user-100000475664075.jpg",
				"facebook_id": 0,
				"location_info": "V\u00e4sterbotten, Ume\u00e5",
				"location_id": "245",
				"category_id": "252",
				"creation_date": "2015-05-20 15:11:15",
				"last_activity_date": "2016-01-29 13:54:45",
				"is_subscribed_by_connected_user": false
			},
			{
				"id": 2668895,
				"title": "Uthyres 5 rok",
				"is_sold": 0,
				"sold_with_klarna": "0",
				"price": "5900.00",
				"description": "UTHYRES\r\nFr\u00e5n och med 1 jan 2016, kallhyra 5.900:-. Uthyres endast till dig med husvana!\r\nUppv\u00e4rmning med luft-luft v\u00e4rmepump, kakelugn, el-element. Elkostnad fr\u00e5n 500:- till ?? beroende p\u00e5 hur mycket",
				"comments_nb": 3,
				"klarna_enabled": 0,
				"shipping_method": [],
				"is_lyxloppis": 0,
				"on_his_blacklist": 0,
				"on_my_blacklist": 0,
				"in_favorites": 0,
				"link": "http:\/\/citiboard.se\/smedjebacken\/uthyres-5-rok,2668895",
				"comments": [
					{
						"id": "4390057",
						"body": "Hej vi \u00e4r en barnfamilj som s\u00f6ker hus.  Vi har husvana och \u00e4r intresserad.  Pm g\u00e4rna",
						"author_name": "Mona",
						"author_id": "573427437",
						"author_avatar": "http:\/\/cbseavatarthumb.blob.core.windows.net\/default\/3d\/43\/fd\/user-573427437.jpg",
						"creation_date": "2016-01-29 13:53:52"
					},
					{
						"id": "4369703",
						"body": "Har skickat meddelande",
						"author_name": "Christer",
						"author_id": "702258614",
						"author_avatar": "http:\/\/cbseavatarthumb.blob.core.windows.net\/default\/1c\/d3\/9f\/user-702258614.jpg",
						"creation_date": "2016-01-20 10:16:14"
					},
					{
						"id": "4262369",
						"body": "Vart ligger det",
						"author_name": "\u00c5sa",
						"author_id": "100000023753619",
						"author_avatar": "http:\/\/cbseavatarthumb.blob.core.windows.net\/default\/a6\/2d\/92\/user-100000023753619.jpg",
						"creation_date": "2015-11-24 20:40:50"
					}
				],
				"picture": {
					"square": "http:\/\/cbsethumb.blob.core.windows.net\/350x300c\/2f\/bd\/76\/uthyres-5-rok-5463043.jpg",
					"big": "http:\/\/cbsethumb.blob.core.windows.net\/350x300c\/2f\/bd\/76\/uthyres-5-rok-5463043.jpg",
					"full": "http:\/\/cbsethumb.blob.core.windows.net\/534x389\/2f\/bd\/76\/uthyres-5-rok-5463043.jpg"
				},
				"pictures_count": 1,
				"tel_num": "",
				"owner_name": "K\u00e4ll\u00e4ngsv\u00e4gen",
				"owner_id": 10206227985274683,
				"owner_avatar": "http:\/\/cbseavatarthumb.blob.core.windows.net\/default\/44\/66\/12\/user-10206227985274683.jpg",
				"facebook_id": 0,
				"location_info": "Dalarna, Smedjebacken",
				"location_id": "41",
				"category_id": "84",
				"creation_date": "2015-10-17 14:59:03",
				"last_activity_date": "2016-01-29 13:53:52",
				"is_subscribed_by_connected_user": false
			},
			{
				"id": 2306169,
				"title": "Huvtr\u00f6jor strl 158",
				"is_sold": 0,
				"sold_with_klarna": "0",
				"price": "100.00",
				"description": "Falun (Sl\u00e4tta) 4st huvtr\u00f6jor, tre med dragkedja, storlek 158, pris 100kr f\u00f6r alla fyra.",
				"comments_nb": 1,
				"klarna_enabled": 0,
				"shipping_method": [],
				"is_lyxloppis": 0,
				"on_his_blacklist": 0,
				"on_my_blacklist": 0,
				"in_favorites": 0,
				"link": "http:\/\/citiboard.se\/falun-borlange\/huvtrojor-strl-158,2306169",
				"comments": [
					{
						"id": "4390055",
						"body": "kvar",
						"author_name": "Lea",
						"author_id": "1099276309",
						"author_avatar": "http:\/\/cbseavatarthumb.blob.core.windows.net\/default\/ec\/a0\/86\/user-1099276309.jpg",
						"creation_date": "2016-01-29 13:53:30"
					}
				],
				"picture": {
					"square": "http:\/\/cbsethumb.blob.core.windows.net\/350x300c\/59\/fe\/0a\/huvtrojor-strl-158-4623131.jpg",
					"big": "http:\/\/cbsethumb.blob.core.windows.net\/350x300c\/59\/fe\/0a\/huvtrojor-strl-158-4623131.jpg",
					"full": "http:\/\/cbsethumb.blob.core.windows.net\/534x389\/59\/fe\/0a\/huvtrojor-strl-158-4623131.jpg"
				},
				"pictures_count": 1,
				"tel_num": "",
				"owner_name": "Emma",
				"owner_id": 100006106714673,
				"owner_avatar": "http:\/\/cbseavatarthumb.blob.core.windows.net\/default\/9e\/8f\/a9\/user-100006106714673.jpg",
				"facebook_id": 0,
				"location_info": "Dalarna, Falun \/ Borl\u00e4nge",
				"location_id": "317",
				"category_id": "42",
				"creation_date": "2015-03-29 18:50:29",
				"last_activity_date": "2016-01-29 13:53:30",
				"is_subscribed_by_connected_user": false
			},
			{
				"id": 2814097,
				"title": "Damcykel",
				"is_sold": 0,
				"sold_with_klarna": "0",
				"price": "1600.00",
				"description": "Yosemite damcykel 28\" 7 vxl ",
				"comments_nb": 3,
				"klarna_enabled": 0,
				"shipping_method": [],
				"is_lyxloppis": 0,
				"on_his_blacklist": 0,
				"on_my_blacklist": 0,
				"in_favorites": 0,
				"link": "http:\/\/citiboard.se\/sundsvall\/damcykel,2814097",
				"comments": [
					{
						"id": "4390069",
						"body": "Ja den \u00e4r kvar. Ring 060121080 om du vill k\u00f6pa den",
						"author_name": "Fyndlagret",
						"author_id": "10206227985266865",
						"author_avatar": "http:\/\/cbseavatarthumb.blob.core.windows.net\/default\/6f\/32\/08\/user-10206227985266865.jpg",
						"creation_date": "2016-01-29 13:57:09"
					},
					{
						"id": "4390053",
						"body": "???",
						"author_name": "Emma",
						"author_id": "10206227985307949",
						"author_avatar": "http:\/\/cbseavatarthumb.blob.core.windows.net\/default\/2e\/da\/00\/user-10206227985307949.jpg",
						"creation_date": "2016-01-29 13:53:04"
					},
					{
						"id": "4390009",
						"body": "finns denna kvar?",
						"author_name": "Emma",
						"author_id": "10206227985307949",
						"author_avatar": "http:\/\/cbseavatarthumb.blob.core.windows.net\/default\/2e\/da\/00\/user-10206227985307949.jpg",
						"creation_date": "2016-01-29 13:32:49"
					}
				],
				"picture": {
					"square": "http:\/\/cbsethumb.blob.core.windows.net\/350x300c\/b9\/58\/c7\/damcykel-5810103.jpg",
					"big": "http:\/\/cbsethumb.blob.core.windows.net\/350x300c\/b9\/58\/c7\/damcykel-5810103.jpg",
					"full": "http:\/\/cbsethumb.blob.core.windows.net\/534x389\/b9\/58\/c7\/damcykel-5810103.jpg"
				},
				"pictures_count": 1,
				"tel_num": "060121080",
				"owner_name": "Fyndlagret",
				"owner_id": 10206227985266865,
				"owner_avatar": "http:\/\/cbseavatarthumb.blob.core.windows.net\/default\/6f\/32\/08\/user-10206227985266865.jpg",
				"facebook_id": 0,
				"location_info": "V\u00e4sternorrland, Sundsvall",
				"location_id": "254",
				"category_id": "62",
				"creation_date": "2016-01-28 12:31:36",
				"last_activity_date": "2016-01-29 13:53:04",
				"is_subscribed_by_connected_user": false
			},
			{
				"id": 2721099,
				"title": "3 par killjeans nyskick!",
				"is_sold": 0,
				"sold_with_klarna": "0",
				"price": "300.00",
				"description": "3 par jeans  i ny skick! Finns i sj\u00f6marken!",
				"comments_nb": 1,
				"klarna_enabled": 0,
				"shipping_method": [],
				"is_lyxloppis": 0,
				"on_his_blacklist": 0,
				"on_my_blacklist": 0,
				"in_favorites": 0,
				"link": "http:\/\/citiboard.se\/boras-mark-bollebygd\/3-par-killjeans-nyskick,2721099",
				"comments": [
					{
						"id": "4390051",
						"body": "kvar",
						"author_name": "Lea",
						"author_id": "1099276309",
						"author_avatar": "http:\/\/cbseavatarthumb.blob.core.windows.net\/default\/ec\/a0\/86\/user-1099276309.jpg",
						"creation_date": "2016-01-29 13:52:12"
					}
				],
				"picture": {
					"square": "http:\/\/cbsethumb.blob.core.windows.net\/350x300c\/3f\/85\/ad\/3-par-killjeans-nyskick-5804641.jpg",
					"big": "http:\/\/cbsethumb.blob.core.windows.net\/350x300c\/3f\/85\/ad\/3-par-killjeans-nyskick-5804641.jpg",
					"full": "http:\/\/cbsethumb.blob.core.windows.net\/534x389\/3f\/85\/ad\/3-par-killjeans-nyskick-5804641.jpg"
				},
				"pictures_count": 1,
				"tel_num": "0733853742",
				"owner_name": "Lars",
				"owner_id": 1316720124,
				"owner_avatar": "http:\/\/cbseavatarthumb.blob.core.windows.net\/default\/f6\/84\/b2\/user-1316720124.jpg",
				"facebook_id": 0,
				"location_info": "V\u00e4stra G\u00f6taland, Bor\u00e5s \/ Mark \/ Bollebygd",
				"location_id": "327",
				"category_id": "42",
				"creation_date": "2015-11-18 19:49:40",
				"last_activity_date": "2016-01-29 13:52:13",
				"is_subscribed_by_connected_user": false
			},
			{
				"id": 2263479,
				"title": "Acer aspire",
				"is_sold": 0,
				"sold_with_klarna": "0",
				"price": "700.00",
				"description": "Glapp sk\u00e4rm annars ok skick. Medf\u00f6ljer kabel",
				"comments_nb": 1,
				"klarna_enabled": 0,
				"shipping_method": [],
				"is_lyxloppis": 0,
				"on_his_blacklist": 0,
				"on_my_blacklist": 0,
				"in_favorites": 0,
				"link": "http:\/\/citiboard.se\/gagnef\/acer-aspire,2263479",
				"comments": [
					{
						"id": "4390045",
						"body": "Kvar",
						"author_name": "masha",
						"author_id": "10206227985217097",
						"author_avatar": "http:\/\/cbseavatarthumb.blob.core.windows.net\/default\/f8\/2a\/40\/user-10206227985217097.jpg",
						"creation_date": "2016-01-29 13:51:03"
					}
				],
				"picture": {
					"square": "http:\/\/cbsethumb.blob.core.windows.net\/350x300c\/1d\/5c\/a7\/acer-aspire-4520171.jpg",
					"big": "http:\/\/cbsethumb.blob.core.windows.net\/350x300c\/1d\/5c\/a7\/acer-aspire-4520171.jpg",
					"full": "http:\/\/cbsethumb.blob.core.windows.net\/534x389\/1d\/5c\/a7\/acer-aspire-4520171.jpg"
				},
				"pictures_count": 1,
				"tel_num": "",
				"owner_name": "Anja",
				"owner_id": 562841241,
				"owner_avatar": "http:\/\/cbseavatarthumb.blob.core.windows.net\/default\/1c\/25\/67\/user-562841241.jpg",
				"facebook_id": 0,
				"location_info": "Dalarna, Gagnef",
				"location_id": "32",
				"category_id": "164",
				"creation_date": "2015-03-11 01:18:30",
				"last_activity_date": "2016-01-29 13:51:03",
				"is_subscribed_by_connected_user": false
			},
			{
				"id": 2738487,
				"title": "Beanbag",
				"is_sold": 0,
				"sold_with_klarna": "0",
				"price": "50.00",
				"description": "Barn beanbag i form av en jordgubbe. \nLite streck av bl\u00e4ckpennor och ett par katth\u00e5r medf\u00f6ljer. ",
				"comments_nb": 1,
				"klarna_enabled": 0,
				"shipping_method": [],
				"is_lyxloppis": 0,
				"on_his_blacklist": 0,
				"on_my_blacklist": 0,
				"in_favorites": 0,
				"link": "http:\/\/citiboard.se\/umea\/beanbag,2738487",
				"comments": [
					{
						"id": "4390043",
						"body": "K\u00f6per",
						"author_name": "Britt-Inger",
						"author_id": "1432816098",
						"author_avatar": "http:\/\/cbseavatarthumb.blob.core.windows.net\/default\/44\/fe\/56\/user-1432816098.jpg",
						"creation_date": "2016-01-29 13:49:51"
					}
				],
				"picture": {
					"square": "http:\/\/cbsethumb.blob.core.windows.net\/350x300c\/0e\/49\/47\/beanbag-5628439.jpg",
					"big": "http:\/\/cbsethumb.blob.core.windows.net\/350x300c\/0e\/49\/47\/beanbag-5628439.jpg",
					"full": "http:\/\/cbsethumb.blob.core.windows.net\/534x389\/0e\/49\/47\/beanbag-5628439.jpg"
				},
				"pictures_count": 1,
				"tel_num": "0703391426",
				"owner_name": "Jessica",
				"owner_id": 10206227985174507,
				"owner_avatar": "http:\/\/cbseavatarthumb.blob.core.windows.net\/default\/0b\/e5\/db\/user-10206227985174507.jpg",
				"facebook_id": 0,
				"location_info": "V\u00e4sterbotten, Ume\u00e5",
				"location_id": "245",
				"category_id": "48",
				"creation_date": "2015-12-01 13:26:06",
				"last_activity_date": "2016-01-29 13:49:51",
				"is_subscribed_by_connected_user": false
			},
			{
				"id": 2815855,
				"title": "Digitalkamera",
				"is_sold": 0,
				"sold_with_klarna": "0",
				"price": "100.00",
				"description": "Sony.har sladd men ingen laddare",
				"comments_nb": 0,
				"klarna_enabled": 0,
				"shipping_method": [],
				"is_lyxloppis": 0,
				"on_his_blacklist": 0,
				"on_my_blacklist": 0,
				"in_favorites": 0,
				"link": "http:\/\/citiboard.se\/norrkoping\/digitalkamera,2815855",
				"comments": [],
				"picture": {
					"square": "http:\/\/cbsethumb.blob.core.windows.net\/350x300c\/59\/f1\/55\/digitalkamera-5814143.jpg",
					"big": "http:\/\/cbsethumb.blob.core.windows.net\/350x300c\/59\/f1\/55\/digitalkamera-5814143.jpg",
					"full": "http:\/\/cbsethumb.blob.core.windows.net\/534x389\/59\/f1\/55\/digitalkamera-5814143.jpg"
				},
				"pictures_count": 1,
				"tel_num": "0765839415",
				"owner_name": "Ronny",
				"owner_id": 100001998407920,
				"owner_avatar": "http:\/\/cbseavatarthumb.blob.core.windows.net\/default\/0f\/ce\/09\/user-100001998407920.jpg",
				"facebook_id": 0,
				"location_info": "\u00d6sterg\u00f6tland, Norrk\u00f6ping",
				"location_id": "136",
				"category_id": "169",
				"creation_date": "2016-01-29 13:49:44",
				"last_activity_date": "2016-01-29 13:49:44",
				"is_subscribed_by_connected_user": false
			}
		],
		"owner_profile": [],
		"ads": {
			"top": "20313.3.10.5",
			"center": "20313.3.11.5",
			"foot": "20313.3.12.5"
		},
		"other_locations": [],
		"other_items": []
	}
}